2 0  2
3 0  4
4 0  4
5 0  5
6 0  5
7 0  6
8 0  5
9 0  6
10 0  7
11 0  7
12 0  7
13 0  7
14 0  6
15 0  7
16 0  7
17 0  7
18 0  7
19 0  11
20 0  8
21 0  8
22 0  8
23 0  11
24 0  9
25 1  11
26 1  9
27 1  13
28 1  9
29 1  9
30 1  10
31 1  9
32 2  12
33 2  17
34 2  15
35 3  13
36 4  21
37 3  19
38 3  10
39 3  9
40 4  14
41 5  17
42 4  11
43 5  16
44 5  11
45 6  12
46 8  27
47 6  15
48 6  15
49 8  15
50 7  15
51 9  22
52 9  16
53 11  21
54 12  21
55 12  21
56 13  22
57 14  22
58 13  19
59 13  17
60 18  31
61 16  21
62 16  23
63 17  18
64 18  21
65 20  21
66 20  20
67 24  31
68 22  21
69 24  22
70 23  22
71 26  21
72 28  23
73 28  24
74 30  22
75 30  22
76 32  23
77 32  23
78 32  23
79 36  22
80 31  22
81 35  18
82 38  21
83 40  24
84 41  27
85 42  24
86 55  26
87 48  27
88 51  32
89 49  28
90 49  27
91 54  26
92 54  25
93 54  27
94 68  32
95 56  24
96 59  22
97 71  37
98 66  31
99 67  26
100 68  29
101 67  28
102 77  35
103 78  28
104 82  30
105 77  25
106 81  27
107 87  24
108 95  34
109 92  33
110 94  29
111 97  28
112 96  30
113 101  29
114 125  31
115 117  24
116 110  31
117 109  28
118 119  30
119 122  27
120 124  33
121 120  33
122 146  36
123 140  30
124 153  35
125 141  29
126 131  28
127 155  29
128 147  28
129 158  30
130 171  34
131 158  29
132 163  35
133 178  36
134 186  35
135 187  33
136 177  31
137 195  33
138 185  32
139 194  37
140 193  27
141 226  36
142 210  31
143 200  28
144 217  35
145 214  29
146 244  42
147 226  31
148 230  29
149 252  42
