<?xml version="1.0" encoding="utf-8"  standalone="no"?>
<svg 
 width="600" height="480"
 viewBox="0 0 600 480"
 xmlns="http://www.w3.org/2000/svg"
 xmlns:xlink="http://www.w3.org/1999/xlink"
>

<title>Gnuplot</title>
<desc>Produced by GNUPLOT 5.2 patchlevel 8 </desc>

<g id="gnuplot_canvas">

<rect x="0" y="0" width="600" height="480" fill="#ffffff"/>
<defs>

	<circle id='gpDot' r='0.5' stroke-width='0.5' stroke='currentColor'/>
	<path id='gpPt0' stroke-width='0.222' stroke='currentColor' d='M-1,0 h2 M0,-1 v2'/>
	<path id='gpPt1' stroke-width='0.222' stroke='currentColor' d='M-1,-1 L1,1 M1,-1 L-1,1'/>
	<path id='gpPt2' stroke-width='0.222' stroke='currentColor' d='M-1,0 L1,0 M0,-1 L0,1 M-1,-1 L1,1 M-1,1 L1,-1'/>
	<rect id='gpPt3' stroke-width='0.222' stroke='currentColor' x='-1' y='-1' width='2' height='2'/>
	<rect id='gpPt4' stroke-width='0.222' stroke='currentColor' fill='currentColor' x='-1' y='-1' width='2' height='2'/>
	<circle id='gpPt5' stroke-width='0.222' stroke='currentColor' cx='0' cy='0' r='1'/>
	<use xlink:href='#gpPt5' id='gpPt6' fill='currentColor' stroke='none'/>
	<path id='gpPt7' stroke-width='0.222' stroke='currentColor' d='M0,-1.33 L-1.33,0.67 L1.33,0.67 z'/>
	<use xlink:href='#gpPt7' id='gpPt8' fill='currentColor' stroke='none'/>
	<use xlink:href='#gpPt7' id='gpPt9' stroke='currentColor' transform='rotate(180)'/>
	<use xlink:href='#gpPt9' id='gpPt10' fill='currentColor' stroke='none'/>
	<use xlink:href='#gpPt3' id='gpPt11' stroke='currentColor' transform='rotate(45)'/>
	<use xlink:href='#gpPt11' id='gpPt12' fill='currentColor' stroke='none'/>
	<path id='gpPt13' stroke-width='0.222' stroke='currentColor' d='M0,1.330 L1.265,0.411 L0.782,-1.067 L-0.782,-1.076 L-1.265,0.411 z'/>
	<use xlink:href='#gpPt13' id='gpPt14' fill='currentColor' stroke='none'/>
	<filter id='textbox' filterUnits='objectBoundingBox' x='0' y='0' height='1' width='1'>
	  <feFlood flood-color='#FFFFFF' flood-opacity='1' result='bgnd'/>
	  <feComposite in='SourceGraphic' in2='bgnd' operator='atop'/>
	</filter>
	<filter id='greybox' filterUnits='objectBoundingBox' x='0' y='0' height='1' width='1'>
	  <feFlood flood-color='lightgrey' flood-opacity='1' result='grey'/>
	  <feComposite in='SourceGraphic' in2='grey' operator='atop'/>
	</filter>
</defs>
<g fill="none" color="#FFFFFF" stroke="currentColor" stroke-width="1.00" stroke-linecap="butt" stroke-linejoin="miter">
</g>
<g fill="none" color="black" stroke="currentColor" stroke-width="1.00" stroke-linecap="butt" stroke-linejoin="miter">
	<path stroke='black'  d='M71.9,422.4 L80.9,422.4 M575.0,422.4 L566.0,422.4  '/>	<g transform="translate(63.6,426.3)" stroke="none" fill="black" font-family="Arial" font-size="12.00"  text-anchor="end">
		<text><tspan font-family="Arial" > 0</tspan></text>
	</g>
</g>
<g fill="none" color="black" stroke="currentColor" stroke-width="1.00" stroke-linecap="butt" stroke-linejoin="miter">
	<path stroke='black'  d='M71.9,369.8 L80.9,369.8 M575.0,369.8 L566.0,369.8  '/>	<g transform="translate(63.6,373.7)" stroke="none" fill="black" font-family="Arial" font-size="12.00"  text-anchor="end">
		<text><tspan font-family="Arial" > 20</tspan></text>
	</g>
</g>
<g fill="none" color="black" stroke="currentColor" stroke-width="1.00" stroke-linecap="butt" stroke-linejoin="miter">
	<path stroke='black'  d='M71.9,317.2 L80.9,317.2 M575.0,317.2 L566.0,317.2  '/>	<g transform="translate(63.6,321.1)" stroke="none" fill="black" font-family="Arial" font-size="12.00"  text-anchor="end">
		<text><tspan font-family="Arial" > 40</tspan></text>
	</g>
</g>
<g fill="none" color="black" stroke="currentColor" stroke-width="1.00" stroke-linecap="butt" stroke-linejoin="miter">
	<path stroke='black'  d='M71.9,264.6 L80.9,264.6 M575.0,264.6 L566.0,264.6  '/>	<g transform="translate(63.6,268.5)" stroke="none" fill="black" font-family="Arial" font-size="12.00"  text-anchor="end">
		<text><tspan font-family="Arial" > 60</tspan></text>
	</g>
</g>
<g fill="none" color="black" stroke="currentColor" stroke-width="1.00" stroke-linecap="butt" stroke-linejoin="miter">
	<path stroke='black'  d='M71.9,211.9 L80.9,211.9 M575.0,211.9 L566.0,211.9  '/>	<g transform="translate(63.6,215.8)" stroke="none" fill="black" font-family="Arial" font-size="12.00"  text-anchor="end">
		<text><tspan font-family="Arial" > 80</tspan></text>
	</g>
</g>
<g fill="none" color="black" stroke="currentColor" stroke-width="1.00" stroke-linecap="butt" stroke-linejoin="miter">
	<path stroke='black'  d='M71.9,159.3 L80.9,159.3 M575.0,159.3 L566.0,159.3  '/>	<g transform="translate(63.6,163.2)" stroke="none" fill="black" font-family="Arial" font-size="12.00"  text-anchor="end">
		<text><tspan font-family="Arial" > 100</tspan></text>
	</g>
</g>
<g fill="none" color="black" stroke="currentColor" stroke-width="1.00" stroke-linecap="butt" stroke-linejoin="miter">
	<path stroke='black'  d='M71.9,106.7 L80.9,106.7 M575.0,106.7 L566.0,106.7  '/>	<g transform="translate(63.6,110.6)" stroke="none" fill="black" font-family="Arial" font-size="12.00"  text-anchor="end">
		<text><tspan font-family="Arial" > 120</tspan></text>
	</g>
</g>
<g fill="none" color="black" stroke="currentColor" stroke-width="1.00" stroke-linecap="butt" stroke-linejoin="miter">
	<path stroke='black'  d='M71.9,54.1 L80.9,54.1 M575.0,54.1 L566.0,54.1  '/>	<g transform="translate(63.6,58.0)" stroke="none" fill="black" font-family="Arial" font-size="12.00"  text-anchor="end">
		<text><tspan font-family="Arial" > 140</tspan></text>
	</g>
</g>
<g fill="none" color="black" stroke="currentColor" stroke-width="1.00" stroke-linecap="butt" stroke-linejoin="miter">
	<path stroke='black'  d='M71.9,422.4 L71.9,413.4 M71.9,54.1 L71.9,63.1  '/>	<g transform="translate(71.9,444.3)" stroke="none" fill="black" font-family="Arial" font-size="12.00"  text-anchor="middle">
		<text><tspan font-family="Arial" > 0</tspan></text>
	</g>
</g>
<g fill="none" color="black" stroke="currentColor" stroke-width="1.00" stroke-linecap="butt" stroke-linejoin="miter">
	<path stroke='black'  d='M172.5,422.4 L172.5,413.4 M172.5,54.1 L172.5,63.1  '/>	<g transform="translate(172.5,444.3)" stroke="none" fill="black" font-family="Arial" font-size="12.00"  text-anchor="middle">
		<text><tspan font-family="Arial" > 5</tspan></text>
	</g>
</g>
<g fill="none" color="black" stroke="currentColor" stroke-width="1.00" stroke-linecap="butt" stroke-linejoin="miter">
	<path stroke='black'  d='M273.1,422.4 L273.1,413.4 M273.1,54.1 L273.1,63.1  '/>	<g transform="translate(273.1,444.3)" stroke="none" fill="black" font-family="Arial" font-size="12.00"  text-anchor="middle">
		<text><tspan font-family="Arial" > 10</tspan></text>
	</g>
</g>
<g fill="none" color="black" stroke="currentColor" stroke-width="1.00" stroke-linecap="butt" stroke-linejoin="miter">
	<path stroke='black'  d='M373.8,422.4 L373.8,413.4 M373.8,54.1 L373.8,63.1  '/>	<g transform="translate(373.8,444.3)" stroke="none" fill="black" font-family="Arial" font-size="12.00"  text-anchor="middle">
		<text><tspan font-family="Arial" > 15</tspan></text>
	</g>
</g>
<g fill="none" color="black" stroke="currentColor" stroke-width="1.00" stroke-linecap="butt" stroke-linejoin="miter">
	<path stroke='black'  d='M474.4,422.4 L474.4,413.4 M474.4,54.1 L474.4,63.1  '/>	<g transform="translate(474.4,444.3)" stroke="none" fill="black" font-family="Arial" font-size="12.00"  text-anchor="middle">
		<text><tspan font-family="Arial" > 20</tspan></text>
	</g>
</g>
<g fill="none" color="black" stroke="currentColor" stroke-width="1.00" stroke-linecap="butt" stroke-linejoin="miter">
	<path stroke='black'  d='M575.0,422.4 L575.0,413.4 M575.0,54.1 L575.0,63.1  '/>	<g transform="translate(575.0,444.3)" stroke="none" fill="black" font-family="Arial" font-size="12.00"  text-anchor="middle">
		<text><tspan font-family="Arial" > 25</tspan></text>
	</g>
</g>
<g fill="none" color="black" stroke="currentColor" stroke-width="1.00" stroke-linecap="butt" stroke-linejoin="miter">
</g>
<g fill="none" color="black" stroke="currentColor" stroke-width="1.00" stroke-linecap="butt" stroke-linejoin="miter">
	<path stroke='black'  d='M71.9,54.1 L71.9,422.4 L575.0,422.4 L575.0,54.1 L71.9,54.1 Z  '/></g>
<g fill="none" color="black" stroke="currentColor" stroke-width="1.00" stroke-linecap="butt" stroke-linejoin="miter">
	<g transform="translate(19.0,238.3) rotate(270)" stroke="none" fill="black" font-family="Arial" font-size="12.00"  text-anchor="middle">
		<text><tspan font-family="Arial" >Percent Activity</tspan></text>
	</g>
</g>
<g fill="none" color="black" stroke="currentColor" stroke-width="1.00" stroke-linecap="butt" stroke-linejoin="miter">
	<g transform="translate(323.4,471.3)" stroke="none" fill="black" font-family="Arial" font-size="12.00"  text-anchor="middle">
		<text><tspan font-family="Arial" >days</tspan></text>
	</g>
</g>
<g fill="none" color="black" stroke="currentColor" stroke-width="1.00" stroke-linecap="butt" stroke-linejoin="miter">
	<g transform="translate(323.4,31.0)" stroke="none" fill="black" font-family="Arial" font-size="12.00"  text-anchor="middle">
		<text><tspan font-family="Arial" >Rutherford and Soddy radioactivity measurements</tspan></text>
	</g>
</g>
<g fill="none" color="black" stroke="currentColor" stroke-width="1.00" stroke-linecap="butt" stroke-linejoin="miter">
</g>
	<g id="gnuplot_plot_1" ><title>lny = ln(a) - lambda *t</title>
<g fill="none" color="black" stroke="currentColor" stroke-width="1.00" stroke-linecap="butt" stroke-linejoin="miter">
	<g transform="translate(507.9,76.0)" stroke="none" fill="black" font-family="Arial" font-size="12.00"  text-anchor="end">
		<text><tspan font-family="Arial" >lny = ln(a) - lambda *t</tspan></text>
	</g>
</g>
<g fill="none" color="black" stroke="currentColor" stroke-width="1.00" stroke-linecap="butt" stroke-linejoin="miter">
	<path stroke='rgb(148,   0, 211)'  d='M516.2,72.1 L558.4,72.1 M71.9,57.0 L72.1,57.6 L72.3,58.2 L72.5,58.8 L72.7,59.5 L72.9,60.1
		L73.1,60.7 L73.3,61.3 L73.5,61.9 L73.7,62.5 L73.9,63.2 L74.1,63.8 L74.3,64.4 L74.5,65.0
		L74.7,65.6 L74.9,66.2 L75.1,66.8 L75.3,67.4 L75.5,68.0 L75.7,68.6 L75.9,69.2 L76.1,69.8
		L76.3,70.4 L76.5,71.0 L76.7,71.6 L76.9,72.2 L77.1,72.8 L77.3,73.4 L77.5,74.0 L77.7,74.6
		L77.9,75.2 L78.1,75.8 L78.3,76.4 L78.5,76.9 L78.7,77.5 L78.9,78.1 L79.1,78.7 L79.3,79.3
		L79.5,79.9 L79.7,80.5 L79.9,81.0 L80.2,81.6 L80.4,82.2 L80.6,82.8 L80.8,83.4 L81.0,83.9
		L81.2,84.5 L81.4,85.1 L81.6,85.7 L81.8,86.2 L82.0,86.8 L82.2,87.4 L82.4,87.9 L82.6,88.5
		L82.8,89.1 L83.0,89.6 L83.2,90.2 L83.4,90.8 L83.6,91.3 L83.8,91.9 L84.0,92.5 L84.2,93.0
		L84.4,93.6 L84.6,94.2 L84.8,94.7 L85.0,95.3 L85.2,95.8 L85.4,96.4 L85.6,96.9 L85.8,97.5
		L86.0,98.0 L86.2,98.6 L86.4,99.1 L86.6,99.7 L86.8,100.2 L87.0,100.8 L87.2,101.3 L87.4,101.9
		L87.6,102.4 L87.8,103.0 L88.0,103.5 L88.2,104.1 L88.4,104.6 L88.6,105.1 L88.8,105.7 L89.0,106.2
		L89.2,106.8 L89.4,107.3 L89.6,107.8 L89.8,108.4 L90.0,108.9 L90.2,109.4 L90.4,110.0 L90.6,110.5
		L90.8,111.0 L91.0,111.6 L91.2,112.1 L91.4,112.6 L91.6,113.1 L91.8,113.7 L92.0,114.2 L92.2,114.7
		L92.4,115.2 L92.6,115.8 L92.8,116.3 L93.0,116.8 L93.2,117.3 L93.4,117.8 L93.6,118.4 L93.8,118.9
		L94.0,119.4 L94.2,119.9 L94.4,120.4 L94.6,120.9 L94.8,121.5 L95.0,122.0 L95.2,122.5 L95.4,123.0
		L95.6,123.5 L95.8,124.0 L96.0,124.5 L96.3,125.0 L96.5,125.5 L96.7,126.0 L96.9,126.5 L97.1,127.0
		L97.3,127.5 L97.5,128.0 L97.7,128.5 L97.9,129.0 L98.1,129.5 L98.3,130.0 L98.5,130.5 L98.7,131.0
		L98.9,131.5 L99.1,132.0 L99.3,132.5 L99.5,133.0 L99.7,133.5 L99.9,134.0 L100.1,134.5 L100.3,135.0
		L100.5,135.5 L100.7,135.9 L100.9,136.4 L101.1,136.9 L101.3,137.4 L101.5,137.9 L101.7,138.4 L101.9,138.9
		L102.1,139.3 L102.3,139.8 L102.5,140.3 L102.7,140.8 L102.9,141.3 L103.1,141.7 L103.3,142.2 L103.5,142.7
		L103.7,143.2 L103.9,143.6 L104.1,144.1 L104.3,144.6 L104.5,145.1 L104.7,145.5 L104.9,146.0 L105.1,146.5
		L105.3,146.9 L105.5,147.4 L105.7,147.9 L105.9,148.4 L106.1,148.8 L106.3,149.3 L106.5,149.7 L106.7,150.2
		L106.9,150.7 L107.1,151.1 L107.3,151.6 L107.5,152.1 L107.7,152.5 L107.9,153.0 L108.1,153.4 L108.3,153.9
		L108.5,154.4 L108.7,154.8 L108.9,155.3 L109.1,155.7 L109.3,156.2 L109.5,156.6 L109.7,157.1 L109.9,157.5
		L110.1,158.0 L110.3,158.4 L110.5,158.9 L110.7,159.3 L110.9,159.8 L111.1,160.2 L111.3,160.7 L111.5,161.1
		L111.7,161.6 L111.9,162.0 L112.1,162.4 L112.3,162.9 L112.6,163.3 L112.8,163.8 L113.0,164.2 L113.2,164.6
		L113.4,165.1 L113.6,165.5 L113.8,166.0 L114.0,166.4 L114.2,166.8 L114.4,167.3 L114.6,167.7 L114.8,168.1
		L115.0,168.6 L115.2,169.0 L115.4,169.4 L115.6,169.9 L115.8,170.3 L116.0,170.7 L116.2,171.1 L116.4,171.6
		L116.6,172.0 L116.8,172.4 L117.0,172.9 L117.2,173.3 L117.4,173.7 L117.6,174.1 L117.8,174.5 L118.0,175.0
		L118.2,175.4 L118.4,175.8 L118.6,176.2 L118.8,176.6 L119.0,177.1 L119.2,177.5 L119.4,177.9 L119.6,178.3
		L119.8,178.7 L120.0,179.1 L120.2,179.6 L120.4,180.0 L120.6,180.4 L120.8,180.8 L121.0,181.2 L121.2,181.6
		L121.4,182.0 L121.6,182.4 L121.8,182.8 L122.0,183.2 L122.2,183.7 L122.4,184.1 L122.6,184.5 L122.8,184.9
		L123.0,185.3 L123.2,185.7 L123.4,186.1 L123.6,186.5 L123.8,186.9 L124.0,187.3 L124.2,187.7 L124.4,188.1
		L124.6,188.5 L124.8,188.9 L125.0,189.3 L125.2,189.7 L125.4,190.1 L125.6,190.5 L125.8,190.9 L126.0,191.3
		L126.2,191.6 L126.4,192.0 L126.6,192.4 L126.8,192.8 L127.0,193.2 L127.2,193.6 L127.4,194.0 L127.6,194.4
		L127.8,194.8 L128.0,195.2 L128.2,195.5 L128.4,195.9 L128.6,196.3 L128.9,196.7 L129.1,197.1 L129.3,197.5
		L129.5,197.9 L129.7,198.2 L129.9,198.6 L130.1,199.0 L130.3,199.4 L130.5,199.8 L130.7,200.1 L130.9,200.5
		L131.1,200.9 L131.3,201.3 L131.5,201.6 L131.7,202.0 L131.9,202.4 L132.1,202.8 L132.3,203.1 L132.5,203.5
		L132.7,203.9 L132.9,204.3 L133.1,204.6 L133.3,205.0 L133.5,205.4 L133.7,205.7 L133.9,206.1 L134.1,206.5
		L134.3,206.8 L134.5,207.2 L134.7,207.6 L134.9,207.9 L135.1,208.3 L135.3,208.7 L135.5,209.0 L135.7,209.4
		L135.9,209.8 L136.1,210.1 L136.3,210.5 L136.5,210.8 L136.7,211.2 L136.9,211.6 L137.1,211.9 L137.3,212.3
		L137.5,212.6 L137.7,213.0 L137.9,213.3 L138.1,213.7 L138.3,214.1 L138.5,214.4 L138.7,214.8 L138.9,215.1
		L139.1,215.5 L139.3,215.8 L139.5,216.2 L139.7,216.5 L139.9,216.9 L140.1,217.2 L140.3,217.6 L140.5,217.9
		L140.7,218.3 L140.9,218.6 L141.1,219.0 L141.3,219.3 L141.5,219.7 L141.7,220.0 L141.9,220.3 L142.1,220.7
		L142.3,221.0 L142.5,221.4 L142.7,221.7 L142.9,222.1 L143.1,222.4 L143.3,222.7 L143.5,223.1 L143.7,223.4
		L143.9,223.8 L144.1,224.1 L144.3,224.4 L144.5,224.8 L144.7,225.1 L145.0,225.4 L145.2,225.8 L145.4,226.1
		L145.6,226.4 L145.8,226.8 L146.0,227.1 L146.2,227.4 L146.4,227.8 L146.6,228.1 L146.8,228.4 L147.0,228.8
		L147.2,229.1 L147.4,229.4 L147.6,229.8 L147.8,230.1 L148.0,230.4 L148.2,230.7 L148.4,231.1 L148.6,231.4
		L148.8,231.7 L149.0,232.0 L149.2,232.4 L149.4,232.7 L149.6,233.0 L149.8,233.3 L150.0,233.6 L150.2,234.0
		L150.4,234.3 L150.6,234.6 L150.8,234.9 L151.0,235.2 L151.2,235.6 L151.4,235.9 L151.6,236.2 L151.8,236.5
		L152.0,236.8 L152.2,237.2 L152.4,237.5 L152.6,237.8 L152.8,238.1 L153.0,238.4 L153.2,238.7 L153.4,239.0
		L153.6,239.3 L153.8,239.7 L154.0,240.0 L154.2,240.3 L154.4,240.6 L154.6,240.9 L154.8,241.2 L155.0,241.5
		L155.2,241.8 L155.4,242.1 L155.6,242.4 L155.8,242.7 L156.0,243.0 L156.2,243.4 L156.4,243.7 L156.6,244.0
		L156.8,244.3 L157.0,244.6 L157.2,244.9 L157.4,245.2 L157.6,245.5 L157.8,245.8 L158.0,246.1 L158.2,246.4
		L158.4,246.7 L158.6,247.0 L158.8,247.3 L159.0,247.6 L159.2,247.9 L159.4,248.2 L159.6,248.5 L159.8,248.8
		L160.0,249.1 L160.2,249.3 L160.4,249.6 L160.6,249.9 L160.8,250.2 L161.0,250.5 L161.3,250.8 L161.5,251.1
		L161.7,251.4 L161.9,251.7 L162.1,252.0 L162.3,252.3 L162.5,252.6 L162.7,252.8 L162.9,253.1 L163.1,253.4
		L163.3,253.7 L163.5,254.0 L163.7,254.3 L163.9,254.6 L164.1,254.9 L164.3,255.1 L164.5,255.4 L164.7,255.7
		L164.9,256.0 L165.1,256.3 L165.3,256.6 L165.5,256.8 L165.7,257.1 L165.9,257.4 L166.1,257.7 L166.3,258.0
		L166.5,258.2 L166.7,258.5 L166.9,258.8 L167.1,259.1 L167.3,259.4 L167.5,259.6 L167.7,259.9 L167.9,260.2
		L168.1,260.5 L168.3,260.7 L168.5,261.0 L168.7,261.3 L168.9,261.6 L169.1,261.8 L169.3,262.1 L169.5,262.4
		L169.7,262.7 L169.9,262.9 L170.1,263.2 L170.3,263.5 L170.5,263.7 L170.7,264.0 L170.9,264.3 L171.1,264.5
		L171.3,264.8 L171.5,265.1 L171.7,265.4 L171.9,265.6 L172.1,265.9 L172.3,266.2 L172.5,266.4 L172.7,266.7
		L172.9,266.9 L173.1,267.2 L173.3,267.5 L173.5,267.7 L173.7,268.0 L173.9,268.3 L174.1,268.5 L174.3,268.8
		L174.5,269.1 L174.7,269.3 L174.9,269.6 L175.1,269.8 L175.3,270.1 L175.5,270.4 L175.7,270.6 L175.9,270.9
		L176.1,271.1 L176.3,271.4 L176.5,271.6 L176.7,271.9 L176.9,272.2 L177.1,272.4 L177.3,272.7 L177.6,272.9
		L177.8,273.2 L178.0,273.4 L178.2,273.7 L178.4,273.9 L178.6,274.2 L178.8,274.4 L179.0,274.7 L179.2,274.9
		L179.4,275.2 L179.6,275.4 L179.8,275.7 L180.0,275.9 L180.2,276.2 L180.4,276.4 L180.6,276.7 L180.8,276.9
		L181.0,277.2 L181.2,277.4 L181.4,277.7 L181.6,277.9 L181.8,278.2 L182.0,278.4 L182.2,278.7 L182.4,278.9
		L182.6,279.1 L182.8,279.4 L183.0,279.6 L183.2,279.9 L183.4,280.1 L183.6,280.4 L183.8,280.6 L184.0,280.8
		L184.2,281.1 L184.4,281.3 L184.6,281.6 L184.8,281.8 L185.0,282.0 L185.2,282.3 L185.4,282.5 L185.6,282.8
		L185.8,283.0 L186.0,283.2 L186.2,283.5 L186.4,283.7 L186.6,283.9 L186.8,284.2 L187.0,284.4 L187.2,284.6
		L187.4,284.9 L187.6,285.1 L187.8,285.4 L188.0,285.6 L188.2,285.8 L188.4,286.0 L188.6,286.3 L188.8,286.5
		L189.0,286.7 L189.2,287.0 L189.4,287.2 L189.6,287.4 L189.8,287.7 L190.0,287.9 L190.2,288.1 L190.4,288.4
		L190.6,288.6 L190.8,288.8 L191.0,289.0 L191.2,289.3 L191.4,289.5 L191.6,289.7 L191.8,289.9 L192.0,290.2
		L192.2,290.4 L192.4,290.6 L192.6,290.8 L192.8,291.1 L193.0,291.3 L193.2,291.5 L193.4,291.7 L193.7,292.0
		L193.9,292.2 L194.1,292.4 L194.3,292.6 L194.5,292.8 L194.7,293.1 L194.9,293.3 L195.1,293.5 L195.3,293.7
		L195.5,293.9 L195.7,294.2 L195.9,294.4 L196.1,294.6 L196.3,294.8 L196.5,295.0 L196.7,295.2 L196.9,295.5
		L197.1,295.7 L197.3,295.9 L197.5,296.1 L197.7,296.3 L197.9,296.5 L198.1,296.7 L198.3,297.0 L198.5,297.2
		L198.7,297.4 L198.9,297.6 L199.1,297.8 L199.3,298.0 L199.5,298.2 L199.7,298.4 L199.9,298.7 L200.1,298.9
		L200.3,299.1 L200.5,299.3 L200.7,299.5 L200.9,299.7 L201.1,299.9 L201.3,300.1 L201.5,300.3 L201.7,300.5
		L201.9,300.7 L202.1,301.0 L202.3,301.2 L202.5,301.4 L202.7,301.6 L202.9,301.8 L203.1,302.0 L203.3,302.2
		L203.5,302.4 L203.7,302.6 L203.9,302.8 L204.1,303.0 L204.3,303.2 L204.5,303.4 L204.7,303.6 L204.9,303.8
		L205.1,304.0 L205.3,304.2 L205.5,304.4 L205.7,304.6 L205.9,304.8 L206.1,305.0 L206.3,305.2 L206.5,305.4
		L206.7,305.6 L206.9,305.8 L207.1,306.0 L207.3,306.2 L207.5,306.4 L207.7,306.6 L207.9,306.8 L208.1,307.0
		L208.3,307.2 L208.5,307.4 L208.7,307.6 L208.9,307.8 L209.1,308.0 L209.3,308.2 L209.5,308.4 L209.7,308.6
		L210.0,308.8 L210.2,309.0 L210.4,309.1 L210.6,309.3 L210.8,309.5 L211.0,309.7 L211.2,309.9 L211.4,310.1
		L211.6,310.3 L211.8,310.5 L212.0,310.7 L212.2,310.9 L212.4,311.1 L212.6,311.2 L212.8,311.4 L213.0,311.6
		L213.2,311.8 L213.4,312.0 L213.6,312.2 L213.8,312.4 L214.0,312.6 L214.2,312.7 L214.4,312.9 L214.6,313.1
		L214.8,313.3 L215.0,313.5 L215.2,313.7 L215.4,313.9 L215.6,314.0 L215.8,314.2 L216.0,314.4 L216.2,314.6
		L216.4,314.8 L216.6,315.0 L216.8,315.1 L217.0,315.3 L217.2,315.5 L217.4,315.7 L217.6,315.9 L217.8,316.1
		L218.0,316.2 L218.2,316.4 L218.4,316.6 L218.6,316.8 L218.8,317.0 L219.0,317.1 L219.2,317.3 L219.4,317.5
		L219.6,317.7 L219.8,317.9 L220.0,318.0 L220.2,318.2 L220.4,318.4 L220.6,318.6 L220.8,318.7 L221.0,318.9
		L221.2,319.1 L221.4,319.3 L221.6,319.4 L221.8,319.6 L222.0,319.8 L222.2,320.0 L222.4,320.1 L222.6,320.3
		L222.8,320.5 L223.0,320.7 L223.2,320.8 L223.4,321.0 L223.6,321.2 L223.8,321.4 L224.0,321.5 L224.2,321.7
		L224.4,321.9 L224.6,322.0 L224.8,322.2 L225.0,322.4 L225.2,322.6 L225.4,322.7 L225.6,322.9 L225.8,323.1
		L226.0,323.2 L226.3,323.4 L226.5,323.6 L226.7,323.7 L226.9,323.9 L227.1,324.1 L227.3,324.2 L227.5,324.4
		L227.7,324.6 L227.9,324.7 L228.1,324.9 L228.3,325.1 L228.5,325.2 L228.7,325.4 L228.9,325.6 L229.1,325.7
		L229.3,325.9 L229.5,326.1 L229.7,326.2 L229.9,326.4 L230.1,326.5 L230.3,326.7 L230.5,326.9 L230.7,327.0
		L230.9,327.2 L231.1,327.4 L231.3,327.5 L231.5,327.7 L231.7,327.8 L231.9,328.0 L232.1,328.2 L232.3,328.3
		L232.5,328.5 L232.7,328.6 L232.9,328.8 L233.1,329.0 L233.3,329.1 L233.5,329.3 L233.7,329.4 L233.9,329.6
		L234.1,329.8 L234.3,329.9 L234.5,330.1 L234.7,330.2 L234.9,330.4 L235.1,330.5 L235.3,330.7 L235.5,330.9
		L235.7,331.0 L235.9,331.2 L236.1,331.3 L236.3,331.5 L236.5,331.6 L236.7,331.8 L236.9,331.9 L237.1,332.1
		L237.3,332.2 L237.5,332.4 L237.7,332.6 L237.9,332.7 L238.1,332.9 L238.3,333.0 L238.5,333.2 L238.7,333.3
		L238.9,333.5 L239.1,333.6 L239.3,333.8 L239.5,333.9 L239.7,334.1 L239.9,334.2 L240.1,334.4 L240.3,334.5
		L240.5,334.7 L240.7,334.8 L240.9,335.0 L241.1,335.1 L241.3,335.3 L241.5,335.4 L241.7,335.6 L241.9,335.7
		L242.1,335.9 L242.4,336.0 L242.6,336.2 L242.8,336.3 L243.0,336.4 L243.2,336.6 L243.4,336.7 L243.6,336.9
		L243.8,337.0 L244.0,337.2 L244.2,337.3 L244.4,337.5 L244.6,337.6 L244.8,337.8 L245.0,337.9 L245.2,338.0
		L245.4,338.2 L245.6,338.3 L245.8,338.5 L246.0,338.6 L246.2,338.8 L246.4,338.9 L246.6,339.0 L246.8,339.2
		L247.0,339.3 L247.2,339.5 L247.4,339.6 L247.6,339.7 L247.8,339.9 L248.0,340.0 L248.2,340.2 L248.4,340.3
		L248.6,340.4 L248.8,340.6 L249.0,340.7 L249.2,340.9 L249.4,341.0 L249.6,341.1 L249.8,341.3 L250.0,341.4
		L250.2,341.6 L250.4,341.7 L250.6,341.8 L250.8,342.0 L251.0,342.1 L251.2,342.2 L251.4,342.4 L251.6,342.5
		L251.8,342.6 L252.0,342.8 L252.2,342.9 L252.4,343.1 L252.6,343.2 L252.8,343.3 L253.0,343.5 L253.2,343.6
		L253.4,343.7 L253.6,343.9 L253.8,344.0 L254.0,344.1 L254.2,344.3 L254.4,344.4 L254.6,344.5 L254.8,344.7
		L255.0,344.8 L255.2,344.9 L255.4,345.1 L255.6,345.2 L255.8,345.3 L256.0,345.4 L256.2,345.6 L256.4,345.7
		L256.6,345.8 L256.8,346.0 L257.0,346.1 L257.2,346.2 L257.4,346.4 L257.6,346.5 L257.8,346.6 L258.0,346.7
		L258.2,346.9 L258.4,347.0 L258.7,347.1 L258.9,347.3 L259.1,347.4 L259.3,347.5 L259.5,347.6 L259.7,347.8
		L259.9,347.9 L260.1,348.0 L260.3,348.2 L260.5,348.3 L260.7,348.4 L260.9,348.5 L261.1,348.7 L261.3,348.8
		L261.5,348.9 L261.7,349.0 L261.9,349.2 L262.1,349.3 L262.3,349.4 L262.5,349.5 L262.7,349.7 L262.9,349.8
		L263.1,349.9 L263.3,350.0 L263.5,350.1 L263.7,350.3 L263.9,350.4 L264.1,350.5 L264.3,350.6 L264.5,350.8
		L264.7,350.9 L264.9,351.0 L265.1,351.1 L265.3,351.2 L265.5,351.4 L265.7,351.5 L265.9,351.6 L266.1,351.7
		L266.3,351.8 L266.5,352.0 L266.7,352.1 L266.9,352.2 L267.1,352.3 L267.3,352.4 L267.5,352.6 L267.7,352.7
		L267.9,352.8 L268.1,352.9 L268.3,353.0 L268.5,353.2 L268.7,353.3 L268.9,353.4 L269.1,353.5 L269.3,353.6
		L269.5,353.7 L269.7,353.9 L269.9,354.0 L270.1,354.1 L270.3,354.2 L270.5,354.3 L270.7,354.4 L270.9,354.6
		L271.1,354.7 L271.3,354.8 L271.5,354.9 L271.7,355.0 L271.9,355.1 L272.1,355.2 L272.3,355.4 L272.5,355.5
		L272.7,355.6 L272.9,355.7 L273.1,355.8 L273.3,355.9 L273.5,356.0 L273.7,356.2 L273.9,356.3 L274.1,356.4
		L274.3,356.5 L274.5,356.6 L274.7,356.7 L275.0,356.8 L275.2,356.9 L275.4,357.1 L275.6,357.2 L275.8,357.3
		L276.0,357.4 L276.2,357.5 L276.4,357.6 L276.6,357.7 L276.8,357.8 L277.0,357.9 L277.2,358.0 L277.4,358.2
		L277.6,358.3 L277.8,358.4 L278.0,358.5 L278.2,358.6 L278.4,358.7 L278.6,358.8 L278.8,358.9 L279.0,359.0
		L279.2,359.1 L279.4,359.2 L279.6,359.3 L279.8,359.5 L280.0,359.6 L280.2,359.7 L280.4,359.8 L280.6,359.9
		L280.8,360.0 L281.0,360.1 L281.2,360.2 L281.4,360.3 L281.6,360.4 L281.8,360.5 L282.0,360.6 L282.2,360.7
		L282.4,360.8 L282.6,360.9 L282.8,361.0 L283.0,361.1 L283.2,361.3 L283.4,361.4 L283.6,361.5 L283.8,361.6
		L284.0,361.7 L284.2,361.8 L284.4,361.9 L284.6,362.0 L284.8,362.1 L285.0,362.2 L285.2,362.3 L285.4,362.4
		L285.6,362.5 L285.8,362.6 L286.0,362.7 L286.2,362.8 L286.4,362.9 L286.6,363.0 L286.8,363.1 L287.0,363.2
		L287.2,363.3 L287.4,363.4 L287.6,363.5 L287.8,363.6 L288.0,363.7 L288.2,363.8 L288.4,363.9 L288.6,364.0
		L288.8,364.1 L289.0,364.2 L289.2,364.3 L289.4,364.4 L289.6,364.5 L289.8,364.6 L290.0,364.7 L290.2,364.8
		L290.4,364.9 L290.6,365.0 L290.8,365.1 L291.1,365.2 L291.3,365.3 L291.5,365.4 L291.7,365.5 L291.9,365.6
		L292.1,365.7 L292.3,365.8 L292.5,365.9 L292.7,366.0 L292.9,366.0 L293.1,366.1 L293.3,366.2 L293.5,366.3
		L293.7,366.4 L293.9,366.5 L294.1,366.6 L294.3,366.7 L294.5,366.8 L294.7,366.9 L294.9,367.0 L295.1,367.1
		L295.3,367.2 L295.5,367.3 L295.7,367.4 L295.9,367.5 L296.1,367.6 L296.3,367.7 L296.5,367.8 L296.7,367.8
		L296.9,367.9 L297.1,368.0 L297.3,368.1 L297.5,368.2 L297.7,368.3 L297.9,368.4 L298.1,368.5 L298.3,368.6
		L298.5,368.7 L298.7,368.8 L298.9,368.9 L299.1,368.9 L299.3,369.0 L299.5,369.1 L299.7,369.2 L299.9,369.3
		L300.1,369.4 L300.3,369.5 L300.5,369.6 L300.7,369.7 L300.9,369.8 L301.1,369.8 L301.3,369.9 L301.5,370.0
		L301.7,370.1 L301.9,370.2 L302.1,370.3 L302.3,370.4 L302.5,370.5 L302.7,370.6 L302.9,370.6 L303.1,370.7
		L303.3,370.8 L303.5,370.9 L303.7,371.0 L303.9,371.1 L304.1,371.2 L304.3,371.3 L304.5,371.3 L304.7,371.4
		L304.9,371.5 L305.1,371.6 L305.3,371.7 L305.5,371.8 L305.7,371.9 L305.9,372.0 L306.1,372.0 L306.3,372.1
		L306.5,372.2 L306.7,372.3 L306.9,372.4 L307.1,372.5 L307.4,372.6 L307.6,372.6 L307.8,372.7 L308.0,372.8
		L308.2,372.9 L308.4,373.0 L308.6,373.1 L308.8,373.1 L309.0,373.2 L309.2,373.3 L309.4,373.4 L309.6,373.5
		L309.8,373.6 L310.0,373.6 L310.2,373.7 L310.4,373.8 L310.6,373.9 L310.8,374.0 L311.0,374.1 L311.2,374.1
		L311.4,374.2 L311.6,374.3 L311.8,374.4 L312.0,374.5 L312.2,374.5 L312.4,374.6 L312.6,374.7 L312.8,374.8
		L313.0,374.9 L313.2,375.0 L313.4,375.0 L313.6,375.1 L313.8,375.2 L314.0,375.3 L314.2,375.4 L314.4,375.4
		L314.6,375.5 L314.8,375.6 L315.0,375.7 L315.2,375.8 L315.4,375.8 L315.6,375.9 L315.8,376.0 L316.0,376.1
		L316.2,376.1 L316.4,376.2 L316.6,376.3 L316.8,376.4 L317.0,376.5 L317.2,376.5 L317.4,376.6 L317.6,376.7
		L317.8,376.8 L318.0,376.9 L318.2,376.9 L318.4,377.0 L318.6,377.1 L318.8,377.2 L319.0,377.2 L319.2,377.3
		L319.4,377.4 L319.6,377.5 L319.8,377.5 L320.0,377.6 L320.2,377.7 L320.4,377.8 L320.6,377.8 L320.8,377.9
		L321.0,378.0 L321.2,378.1 L321.4,378.2 L321.6,378.2 L321.8,378.3 L322.0,378.4 L322.2,378.5 L322.4,378.5
		L322.6,378.6 L322.8,378.7 L323.0,378.7 L323.2,378.8 L323.4,378.9 L323.7,379.0 L323.9,379.0 L324.1,379.1
		L324.3,379.2 L324.5,379.3 L324.7,379.3 L324.9,379.4 L325.1,379.5 L325.3,379.6 L325.5,379.6 L325.7,379.7
		L325.9,379.8 L326.1,379.9 L326.3,379.9 L326.5,380.0 L326.7,380.1 L326.9,380.1 L327.1,380.2 L327.3,380.3
		L327.5,380.4 L327.7,380.4 L327.9,380.5 L328.1,380.6 L328.3,380.6 L328.5,380.7 L328.7,380.8 L328.9,380.9
		L329.1,380.9 L329.3,381.0 L329.5,381.1 L329.7,381.1 L329.9,381.2 L330.1,381.3 L330.3,381.3 L330.5,381.4
		L330.7,381.5 L330.9,381.6 L331.1,381.6 L331.3,381.7 L331.5,381.8 L331.7,381.8 L331.9,381.9 L332.1,382.0
		L332.3,382.0 L332.5,382.1 L332.7,382.2 L332.9,382.2 L333.1,382.3 L333.3,382.4 L333.5,382.4 L333.7,382.5
		L333.9,382.6 L334.1,382.7 L334.3,382.7 L334.5,382.8 L334.7,382.9 L334.9,382.9 L335.1,383.0 L335.3,383.1
		L335.5,383.1 L335.7,383.2 L335.9,383.3 L336.1,383.3 L336.3,383.4 L336.5,383.5 L336.7,383.5 L336.9,383.6
		L337.1,383.7 L337.3,383.7 L337.5,383.8 L337.7,383.9 L337.9,383.9 L338.1,384.0 L338.3,384.0 L338.5,384.1
		L338.7,384.2 L338.9,384.2 L339.1,384.3 L339.3,384.4 L339.5,384.4 L339.8,384.5 L340.0,384.6 L340.2,384.6
		L340.4,384.7 L340.6,384.8 L340.8,384.8 L341.0,384.9 L341.2,385.0 L341.4,385.0 L341.6,385.1 L341.8,385.1
		L342.0,385.2 L342.2,385.3 L342.4,385.3 L342.6,385.4 L342.8,385.5 L343.0,385.5 L343.2,385.6 L343.4,385.6
		L343.6,385.7 L343.8,385.8 L344.0,385.8 L344.2,385.9 L344.4,386.0 L344.6,386.0 L344.8,386.1 L345.0,386.1
		L345.2,386.2 L345.4,386.3 L345.6,386.3 L345.8,386.4 L346.0,386.5 L346.2,386.5 L346.4,386.6 L346.6,386.6
		L346.8,386.7 L347.0,386.8 L347.2,386.8 L347.4,386.9 L347.6,386.9 L347.8,387.0 L348.0,387.1 L348.2,387.1
		L348.4,387.2 L348.6,387.2 L348.8,387.3 L349.0,387.4 L349.2,387.4 L349.4,387.5 L349.6,387.5 L349.8,387.6
		L350.0,387.7 L350.2,387.7 L350.4,387.8 L350.6,387.8 L350.8,387.9 L351.0,387.9 L351.2,388.0 L351.4,388.1
		L351.6,388.1 L351.8,388.2 L352.0,388.2 L352.2,388.3 L352.4,388.4 L352.6,388.4 L352.8,388.5 L353.0,388.5
		L353.2,388.6 L353.4,388.6 L353.6,388.7 L353.8,388.8 L354.0,388.8 L354.2,388.9 L354.4,388.9 L354.6,389.0
		L354.8,389.0 L355.0,389.1 L355.2,389.2 L355.4,389.2 L355.6,389.3 L355.8,389.3 L356.1,389.4 L356.3,389.4
		L356.5,389.5 L356.7,389.6 L356.9,389.6 L357.1,389.7 L357.3,389.7 L357.5,389.8 L357.7,389.8 L357.9,389.9
		L358.1,389.9 L358.3,390.0 L358.5,390.1 L358.7,390.1 L358.9,390.2 L359.1,390.2 L359.3,390.3 L359.5,390.3
		L359.7,390.4 L359.9,390.4 L360.1,390.5 L360.3,390.5 L360.5,390.6 L360.7,390.7 L360.9,390.7 L361.1,390.8
		L361.3,390.8 L361.5,390.9 L361.7,390.9 L361.9,391.0 L362.1,391.0 L362.3,391.1 L362.5,391.1 L362.7,391.2
		L362.9,391.2 L363.1,391.3 L363.3,391.3 L363.5,391.4 L363.7,391.5 L363.9,391.5 L364.1,391.6 L364.3,391.6
		L364.5,391.7 L364.7,391.7 L364.9,391.8 L365.1,391.8 L365.3,391.9 L365.5,391.9 L365.7,392.0 L365.9,392.0
		L366.1,392.1 L366.3,392.1 L366.5,392.2 L366.7,392.2 L366.9,392.3 L367.1,392.3 L367.3,392.4 L367.5,392.4
		L367.7,392.5 L367.9,392.5 L368.1,392.6 L368.3,392.6 L368.5,392.7 L368.7,392.7 L368.9,392.8 L369.1,392.8
		L369.3,392.9 L369.5,392.9 L369.7,393.0 L369.9,393.0 L370.1,393.1 L370.3,393.1 L370.5,393.2 L370.7,393.2
		L370.9,393.3 L371.1,393.3 L371.3,393.4 L371.5,393.4 L371.7,393.5 L371.9,393.5 L372.2,393.6 L372.4,393.6
		L372.6,393.7 L372.8,393.7 L373.0,393.8 L373.2,393.8 L373.4,393.9 L373.6,393.9 L373.8,394.0 L374.0,394.0
		L374.2,394.1 L374.4,394.1 L374.6,394.2 L374.8,394.2 L375.0,394.3 L375.2,394.3 L375.4,394.4 L375.6,394.4
		L375.8,394.5 L376.0,394.5 L376.2,394.6 L376.4,394.6 L376.6,394.6 L376.8,394.7 L377.0,394.7 L377.2,394.8
		L377.4,394.8 L377.6,394.9 L377.8,394.9 L378.0,395.0 L378.2,395.0 L378.4,395.1 L378.6,395.1 L378.8,395.2
		L379.0,395.2 L379.2,395.3 L379.4,395.3 L379.6,395.3 L379.8,395.4 L380.0,395.4 L380.2,395.5 L380.4,395.5
		L380.6,395.6 L380.8,395.6 L381.0,395.7 L381.2,395.7 L381.4,395.8 L381.6,395.8 L381.8,395.8 L382.0,395.9
		L382.2,395.9 L382.4,396.0 L382.6,396.0 L382.8,396.1 L383.0,396.1 L383.2,396.2 L383.4,396.2 L383.6,396.3
		L383.8,396.3 L384.0,396.3 L384.2,396.4 L384.4,396.4 L384.6,396.5 L384.8,396.5 L385.0,396.6 L385.2,396.6
		L385.4,396.7 L385.6,396.7 L385.8,396.7 L386.0,396.8 L386.2,396.8 L386.4,396.9 L386.6,396.9 L386.8,397.0
		L387.0,397.0 L387.2,397.0 L387.4,397.1 L387.6,397.1 L387.8,397.2 L388.0,397.2 L388.2,397.3 L388.5,397.3
		L388.7,397.3 L388.9,397.4 L389.1,397.4 L389.3,397.5 L389.5,397.5 L389.7,397.6 L389.9,397.6 L390.1,397.6
		L390.3,397.7 L390.5,397.7 L390.7,397.8 L390.9,397.8 L391.1,397.8 L391.3,397.9 L391.5,397.9 L391.7,398.0
		L391.9,398.0 L392.1,398.1 L392.3,398.1 L392.5,398.1 L392.7,398.2 L392.9,398.2 L393.1,398.3 L393.3,398.3
		L393.5,398.3 L393.7,398.4 L393.9,398.4 L394.1,398.5 L394.3,398.5 L394.5,398.5 L394.7,398.6 L394.9,398.6
		L395.1,398.7 L395.3,398.7 L395.5,398.8 L395.7,398.8 L395.9,398.8 L396.1,398.9 L396.3,398.9 L396.5,399.0
		L396.7,399.0 L396.9,399.0 L397.1,399.1 L397.3,399.1 L397.5,399.2 L397.7,399.2 L397.9,399.2 L398.1,399.3
		L398.3,399.3 L398.5,399.3 L398.7,399.4 L398.9,399.4 L399.1,399.5 L399.3,399.5 L399.5,399.5 L399.7,399.6
		L399.9,399.6 L400.1,399.7 L400.3,399.7 L400.5,399.7 L400.7,399.8 L400.9,399.8 L401.1,399.9 L401.3,399.9
		L401.5,399.9 L401.7,400.0 L401.9,400.0 L402.1,400.0 L402.3,400.1 L402.5,400.1 L402.7,400.2 L402.9,400.2
		L403.1,400.2 L403.3,400.3 L403.5,400.3 L403.7,400.3 L403.9,400.4 L404.1,400.4 L404.3,400.5 L404.5,400.5
		L404.8,400.5 L405.0,400.6 L405.2,400.6 L405.4,400.6 L405.6,400.7 L405.8,400.7 L406.0,400.8 L406.2,400.8
		L406.4,400.8 L406.6,400.9 L406.8,400.9 L407.0,400.9 L407.2,401.0 L407.4,401.0 L407.6,401.0 L407.8,401.1
		L408.0,401.1 L408.2,401.2 L408.4,401.2 L408.6,401.2 L408.8,401.3 L409.0,401.3 L409.2,401.3 L409.4,401.4
		L409.6,401.4 L409.8,401.4 L410.0,401.5 L410.2,401.5 L410.4,401.6 L410.6,401.6 L410.8,401.6 L411.0,401.7
		L411.2,401.7 L411.4,401.7 L411.6,401.8 L411.8,401.8 L412.0,401.8 L412.2,401.9 L412.4,401.9 L412.6,401.9
		L412.8,402.0 L413.0,402.0 L413.2,402.0 L413.4,402.1 L413.6,402.1 L413.8,402.1 L414.0,402.2 L414.2,402.2
		L414.4,402.2 L414.6,402.3 L414.8,402.3 L415.0,402.4 L415.2,402.4 L415.4,402.4 L415.6,402.5 L415.8,402.5
		L416.0,402.5 L416.2,402.6 L416.4,402.6 L416.6,402.6 L416.8,402.7 L417.0,402.7 L417.2,402.7 L417.4,402.8
		L417.6,402.8 L417.8,402.8 L418.0,402.9 L418.2,402.9 L418.4,402.9 L418.6,403.0 L418.8,403.0 L419.0,403.0
		L419.2,403.1 L419.4,403.1 L419.6,403.1 L419.8,403.2 L420.0,403.2 L420.2,403.2 L420.4,403.3 L420.6,403.3
		L420.9,403.3 L421.1,403.4 L421.3,403.4 L421.5,403.4 L421.7,403.4 L421.9,403.5 L422.1,403.5 L422.3,403.5
		L422.5,403.6 L422.7,403.6 L422.9,403.6 L423.1,403.7 L423.3,403.7 L423.5,403.7 L423.7,403.8 L423.9,403.8
		L424.1,403.8 L424.3,403.9 L424.5,403.9 L424.7,403.9 L424.9,404.0 L425.1,404.0 L425.3,404.0 L425.5,404.1
		L425.7,404.1 L425.9,404.1 L426.1,404.1 L426.3,404.2 L426.5,404.2 L426.7,404.2 L426.9,404.3 L427.1,404.3
		L427.3,404.3 L427.5,404.4 L427.7,404.4 L427.9,404.4 L428.1,404.5 L428.3,404.5 L428.5,404.5 L428.7,404.5
		L428.9,404.6 L429.1,404.6 L429.3,404.6 L429.5,404.7 L429.7,404.7 L429.9,404.7 L430.1,404.8 L430.3,404.8
		L430.5,404.8 L430.7,404.8 L430.9,404.9 L431.1,404.9 L431.3,404.9 L431.5,405.0 L431.7,405.0 L431.9,405.0
		L432.1,405.1 L432.3,405.1 L432.5,405.1 L432.7,405.1 L432.9,405.2 L433.1,405.2 L433.3,405.2 L433.5,405.3
		L433.7,405.3 L433.9,405.3 L434.1,405.3 L434.3,405.4 L434.5,405.4 L434.7,405.4 L434.9,405.5 L435.1,405.5
		L435.3,405.5 L435.5,405.5 L435.7,405.6 L435.9,405.6 L436.1,405.6 L436.3,405.7 L436.5,405.7 L436.7,405.7
		L436.9,405.7 L437.2,405.8 L437.4,405.8 L437.6,405.8 L437.8,405.9 L438.0,405.9 L438.2,405.9 L438.4,405.9
		L438.6,406.0 L438.8,406.0 L439.0,406.0 L439.2,406.1 L439.4,406.1 L439.6,406.1 L439.8,406.1 L440.0,406.2
		L440.2,406.2 L440.4,406.2 L440.6,406.3 L440.8,406.3 L441.0,406.3 L441.2,406.3 L441.4,406.4 L441.6,406.4
		L441.8,406.4 L442.0,406.4 L442.2,406.5 L442.4,406.5 L442.6,406.5 L442.8,406.6 L443.0,406.6 L443.2,406.6
		L443.4,406.6 L443.6,406.7 L443.8,406.7 L444.0,406.7 L444.2,406.7 L444.4,406.8 L444.6,406.8 L444.8,406.8
		L445.0,406.8 L445.2,406.9 L445.4,406.9 L445.6,406.9 L445.8,406.9 L446.0,407.0 L446.2,407.0 L446.4,407.0
		L446.6,407.1 L446.8,407.1 L447.0,407.1 L447.2,407.1 L447.4,407.2 L447.6,407.2 L447.8,407.2 L448.0,407.2
		L448.2,407.3 L448.4,407.3 L448.6,407.3 L448.8,407.3 L449.0,407.4 L449.2,407.4 L449.4,407.4 L449.6,407.4
		L449.8,407.5 L450.0,407.5 L450.2,407.5 L450.4,407.5 L450.6,407.6 L450.8,407.6 L451.0,407.6 L451.2,407.6
		L451.4,407.7 L451.6,407.7 L451.8,407.7 L452.0,407.7 L452.2,407.8 L452.4,407.8 L452.6,407.8 L452.8,407.8
		L453.0,407.9 L453.2,407.9 L453.5,407.9 L453.7,407.9 L453.9,408.0 L454.1,408.0 L454.3,408.0 L454.5,408.0
		L454.7,408.1 L454.9,408.1 L455.1,408.1 L455.3,408.1 L455.5,408.2 L455.7,408.2 L455.9,408.2 L456.1,408.2
		L456.3,408.3 L456.5,408.3 L456.7,408.3 L456.9,408.3 L457.1,408.4 L457.3,408.4 L457.5,408.4 L457.7,408.4
		L457.9,408.5 L458.1,408.5 L458.3,408.5 L458.5,408.5 L458.7,408.5 L458.9,408.6 L459.1,408.6 L459.3,408.6
		L459.5,408.6 L459.7,408.7 L459.9,408.7 L460.1,408.7 L460.3,408.7 L460.5,408.8 L460.7,408.8 L460.9,408.8
		L461.1,408.8 L461.3,408.8 L461.5,408.9 L461.7,408.9 L461.9,408.9 L462.1,408.9 L462.3,409.0 L462.5,409.0
		L462.7,409.0 L462.9,409.0 L463.1,409.1 L463.3,409.1 L463.5,409.1 L463.7,409.1 L463.9,409.1 L464.1,409.2
		L464.3,409.2 L464.5,409.2 L464.7,409.2 L464.9,409.3 L465.1,409.3 L465.3,409.3 L465.5,409.3 L465.7,409.3
		L465.9,409.4 L466.1,409.4 L466.3,409.4 L466.5,409.4 L466.7,409.5 L466.9,409.5 L467.1,409.5 L467.3,409.5
		L467.5,409.5 L467.7,409.6 L467.9,409.6 L468.1,409.6 L468.3,409.6 L468.5,409.7 L468.7,409.7 L468.9,409.7
		L469.1,409.7 L469.3,409.7 L469.6,409.8 L469.8,409.8 L470.0,409.8 L470.2,409.8 L470.4,409.8 L470.6,409.9
		L470.8,409.9 L471.0,409.9 L471.2,409.9 L471.4,410.0 L471.6,410.0 L471.8,410.0 L472.0,410.0 L472.2,410.0
		L472.4,410.1 L472.6,410.1 L472.8,410.1 L473.0,410.1 L473.2,410.1 L473.4,410.2 L473.6,410.2 L473.8,410.2
		L474.0,410.2 L474.2,410.2 L474.4,410.3 L474.6,410.3 L474.8,410.3 L475.0,410.3 L475.2,410.4 L475.4,410.4
		L475.6,410.4 L475.8,410.4 L476.0,410.4 L476.2,410.5 L476.4,410.5 L476.6,410.5 L476.8,410.5 L477.0,410.5
		L477.2,410.6 L477.4,410.6 L477.6,410.6 L477.8,410.6 L478.0,410.6 L478.2,410.7 L478.4,410.7 L478.6,410.7
		L478.8,410.7 L479.0,410.7 L479.2,410.8 L479.4,410.8 L479.6,410.8 L479.8,410.8 L480.0,410.8 L480.2,410.9
		L480.4,410.9 L480.6,410.9 L480.8,410.9 L481.0,410.9 L481.2,411.0 L481.4,411.0 L481.6,411.0 L481.8,411.0
		L482.0,411.0 L482.2,411.0 L482.4,411.1 L482.6,411.1 L482.8,411.1 L483.0,411.1 L483.2,411.1 L483.4,411.2
		L483.6,411.2 L483.8,411.2 L484.0,411.2 L484.2,411.2 L484.4,411.3 L484.6,411.3 L484.8,411.3 L485.0,411.3
		L485.2,411.3 L485.4,411.4 L485.6,411.4 L485.9,411.4 L486.1,411.4 L486.3,411.4 L486.5,411.4 L486.7,411.5
		L486.9,411.5 L487.1,411.5 L487.3,411.5 L487.5,411.5 L487.7,411.6 L487.9,411.6 L488.1,411.6 L488.3,411.6
		L488.5,411.6 L488.7,411.6 L488.9,411.7 L489.1,411.7 L489.3,411.7 L489.5,411.7 L489.7,411.7 L489.9,411.8
		L490.1,411.8 L490.3,411.8 L490.5,411.8 L490.7,411.8 L490.9,411.8 L491.1,411.9 L491.3,411.9 L491.5,411.9
		L491.7,411.9 L491.9,411.9 L492.1,412.0 L492.3,412.0 L492.5,412.0 L492.7,412.0 L492.9,412.0 L493.1,412.0
		L493.3,412.1 L493.5,412.1 L493.7,412.1 L493.9,412.1 L494.1,412.1 L494.3,412.1 L494.5,412.2 L494.7,412.2
		L494.9,412.2 L495.1,412.2 L495.3,412.2 L495.5,412.3 L495.7,412.3 L495.9,412.3 L496.1,412.3 L496.3,412.3
		L496.5,412.3 L496.7,412.4 L496.9,412.4 L497.1,412.4 L497.3,412.4 L497.5,412.4 L497.7,412.4 L497.9,412.5
		L498.1,412.5 L498.3,412.5 L498.5,412.5 L498.7,412.5 L498.9,412.5 L499.1,412.6 L499.3,412.6 L499.5,412.6
		L499.7,412.6 L499.9,412.6 L500.1,412.6 L500.3,412.7 L500.5,412.7 L500.7,412.7 L500.9,412.7 L501.1,412.7
		L501.3,412.7 L501.5,412.8 L501.7,412.8 L501.9,412.8 L502.2,412.8 L502.4,412.8 L502.6,412.8 L502.8,412.9
		L503.0,412.9 L503.2,412.9 L503.4,412.9 L503.6,412.9 L503.8,412.9 L504.0,413.0 L504.2,413.0 L504.4,413.0
		L504.6,413.0 L504.8,413.0 L505.0,413.0 L505.2,413.1 L505.4,413.1 L505.6,413.1 L505.8,413.1 L506.0,413.1
		L506.2,413.1 L506.4,413.1 L506.6,413.2 L506.8,413.2 L507.0,413.2 L507.2,413.2 L507.4,413.2 L507.6,413.2
		L507.8,413.3 L508.0,413.3 L508.2,413.3 L508.4,413.3 L508.6,413.3 L508.8,413.3 L509.0,413.3 L509.2,413.4
		L509.4,413.4 L509.6,413.4 L509.8,413.4 L510.0,413.4 L510.2,413.4 L510.4,413.5 L510.6,413.5 L510.8,413.5
		L511.0,413.5 L511.2,413.5 L511.4,413.5 L511.6,413.5 L511.8,413.6 L512.0,413.6 L512.2,413.6 L512.4,413.6
		L512.6,413.6 L512.8,413.6 L513.0,413.7 L513.2,413.7 L513.4,413.7 L513.6,413.7 L513.8,413.7 L514.0,413.7
		L514.2,413.7 L514.4,413.8  '/></g>
	</g>
	<g id="gnuplot_plot_2" ><title>Original data</title>
<g fill="none" color="black" stroke="currentColor" stroke-width="1.00" stroke-linecap="butt" stroke-linejoin="miter">
	<g transform="translate(507.9,94.0)" stroke="none" fill="black" font-family="Arial" font-size="12.00"  text-anchor="end">
		<text><tspan font-family="Arial" >Original data</tspan></text>
	</g>
</g>
<g fill="none" color="black" stroke="currentColor" stroke-width="1.00" stroke-linecap="butt" stroke-linejoin="miter">
	<path stroke='rgb(  0, 158, 115)'  d='M516.2,90.1 L558.4,90.1 M516.2,85.6 L516.2,94.6 M558.4,85.6 L558.4,94.6 M92.0,130.0 L92.0,99.2
		M87.5,130.0 L96.5,130.0 M87.5,99.2 L96.5,99.2 M112.1,172.5 L112.1,146.2 M107.6,172.5 L116.6,172.5
		M107.6,146.2 L116.6,146.2 M132.3,202.5 L132.3,179.3 M127.8,202.5 L136.8,202.5 M127.8,179.3 L136.8,179.3
		M152.4,242.5 L152.4,223.5 M147.9,242.5 L156.9,242.5 M147.9,223.5 L156.9,223.5 M192.6,289.9 L192.6,276.0
		M188.1,289.9 L197.1,289.9 M188.1,276.0 L197.1,276.0 M253.0,348.7 L253.0,340.9 M248.5,348.7 L257.5,348.7
		M248.5,340.9 L257.5,340.9 M273.1,359.4 L273.1,352.8 M268.6,359.4 L277.6,359.4 M268.6,352.8 L277.6,352.8
		M333.5,384.4 L333.5,380.4 M329.0,384.4 L338.0,384.4 M329.0,380.4 L338.0,380.4 M373.8,394.7 L373.8,391.7
		M369.3,394.7 L378.3,394.7 M369.3,391.7 L378.3,391.7  '/>	<use xlink:href='#gpPt1' transform='translate(92.0,114.6) scale(4.50)' color='rgb(  0, 158, 115)'/>
	<use xlink:href='#gpPt1' transform='translate(112.1,159.3) scale(4.50)' color='rgb(  0, 158, 115)'/>
	<use xlink:href='#gpPt1' transform='translate(132.3,190.9) scale(4.50)' color='rgb(  0, 158, 115)'/>
	<use xlink:href='#gpPt1' transform='translate(152.4,233.0) scale(4.50)' color='rgb(  0, 158, 115)'/>
	<use xlink:href='#gpPt1' transform='translate(192.6,283.0) scale(4.50)' color='rgb(  0, 158, 115)'/>
	<use xlink:href='#gpPt1' transform='translate(253.0,344.8) scale(4.50)' color='rgb(  0, 158, 115)'/>
	<use xlink:href='#gpPt1' transform='translate(273.1,356.1) scale(4.50)' color='rgb(  0, 158, 115)'/>
	<use xlink:href='#gpPt1' transform='translate(333.5,382.4) scale(4.50)' color='rgb(  0, 158, 115)'/>
	<use xlink:href='#gpPt1' transform='translate(373.8,393.2) scale(4.50)' color='rgb(  0, 158, 115)'/>
	<use xlink:href='#gpPt1' transform='translate(537.3,90.1) scale(4.50)' color='rgb(  0, 158, 115)'/>
</g>
	</g>
<g fill="none" color="#FFFFFF" stroke="rgb(  0, 158, 115)" stroke-width="2.00" stroke-linecap="butt" stroke-linejoin="miter">
</g>
<g fill="none" color="black" stroke="currentColor" stroke-width="2.00" stroke-linecap="butt" stroke-linejoin="miter">
</g>
<g fill="none" color="black" stroke="black" stroke-width="1.00" stroke-linecap="butt" stroke-linejoin="miter">
</g>
<g fill="none" color="black" stroke="currentColor" stroke-width="1.00" stroke-linecap="butt" stroke-linejoin="miter">
	<path stroke='black'  d='M71.9,54.1 L71.9,422.4 L575.0,422.4 L575.0,54.1 L71.9,54.1 Z  '/></g>
<g fill="none" color="black" stroke="currentColor" stroke-width="1.00" stroke-linecap="butt" stroke-linejoin="miter">
</g>
</g>
</svg>

