\relax 
\citation{1}
\@writefile{toc}{\contentsline {section}{\numberline {1}Introduction to Weighted Residual Methods}{1}\protected@file@percent }
\newlabel{eq:1}{{1}{1}}
\newlabel{eq:2}{{2}{1}}
\newlabel{eq:3}{{3}{1}}
\newlabel{eq:4}{{4}{1}}
\newlabel{eq:5}{{5}{1}}
\@writefile{toc}{\contentsline {section}{\numberline {2}Weight Function}{1}\protected@file@percent }
\@writefile{toc}{\contentsline {subsection}{\numberline {2.1}Galerkin Method}{1}\protected@file@percent }
\newlabel{eq:6}{{6}{1}}
\citation{2}
\citation{2}
\newlabel{eq:7}{{7}{2}}
\@writefile{toc}{\contentsline {subsection}{\numberline {2.2}Galerkin Method Example}{2}\protected@file@percent }
\newlabel{eq:exact}{{8}{2}}
\newlabel{eq:8}{{9}{2}}
\newlabel{eq:9}{{10}{2}}
\newlabel{eq:10}{{11}{2}}
\newlabel{eq:11}{{12}{2}}
\newlabel{eq:12}{{13}{2}}
\newlabel{eq:13}{{14}{2}}
\newlabel{eq:14}{{15}{2}}
\newlabel{fig:1}{{2.2}{2}}
\@writefile{lof}{\contentsline {figure}{\numberline {1}{\ignorespaces Galerkin solution vs. exact solution}}{2}\protected@file@percent }
\bibcite{1}{1}
\bibcite{2}{2}
