0 138.903910503724
0.01 138.667615235348
0.02 138.431721938765
0.03 138.196229930163
0.04 137.961138526894
0.05 137.726447047473
0.06 137.49215481157
0.07 137.258261140018
0.08 137.0247653548
0.09 136.791666779057
0.1 136.558964737078
0.11 136.326658554303
0.12 136.09474755732
0.13 135.863231073861
0.14 135.632108432802
0.15 135.401378964163
0.16 135.171041999101
0.17 134.941096869911
0.18 134.711542910025
0.19 134.482379454009
0.2 134.25360583756
0.21 134.025221397505
0.22 133.797225471801
0.23 133.56961739953
0.24 133.342396520897
0.25 133.115562177231
0.26 132.889113710981
0.27 132.663050465716
0.28 132.437371786119
0.29 132.21207701799
0.3 131.987165508241
0.31 131.762636604895
0.32 131.538489657084
0.33 131.314724015048
0.34 131.091339030131
0.35 130.868334054782
0.36 130.64570844255
0.37 130.423461548084
0.38 130.201592727133
0.39 129.98010133654
0.4 129.758986734241
0.41 129.538248279266
0.42 129.317885331737
0.43 129.09789725286
0.44 128.878283404931
0.45 128.65904315133
0.46 128.440175856521
0.47 128.221680886047
0.48 128.003557606533
0.49 127.785805385677
0.5 127.568423592259
0.51 127.351411596127
0.52 127.134768768204
0.53 126.918494480482
0.54 126.702588106023
0.55 126.487049018953
0.56 126.271876594465
0.57 126.057070208814
0.58 125.842629239315
0.59 125.628553064344
0.6 125.414841063333
0.61 125.201492616771
0.62 124.988507106201
0.63 124.775883914215
0.64 124.563622424461
0.65 124.351722021629
0.66 124.140182091461
0.67 123.929002020741
0.68 123.718181197297
0.69 123.507719009998
0.7 123.297614848754
0.71 123.087868104512
0.72 122.878478169253
0.73 122.669444435996
0.74 122.460766298791
0.75 122.252443152717
0.76 122.044474393886
0.77 121.836859419433
0.78 121.629597627521
0.79 121.422688417337
0.8 121.216131189089
0.81 121.009925344006
0.820000000000001 120.804070284336
0.830000000000001 120.598565413341
0.840000000000001 120.393410135303
0.850000000000001 120.188603855513
0.860000000000001 119.984145980275
0.870000000000001 119.780035916906
0.880000000000001 119.576273073726
0.890000000000001 119.372856860066
0.900000000000001 119.169786686259
0.910000000000001 118.967061963642
0.920000000000001 118.764682104554
0.930000000000001 118.562646522332
0.940000000000001 118.360954631314
0.950000000000001 118.159605846832
0.960000000000001 117.958599585212
0.970000000000001 117.757935263775
0.980000000000001 117.557612300832
0.990000000000001 117.357630115684
1 117.157988128619
1.01 116.958685760911
1.02 116.759722434821
1.03 116.561097573591
1.04 116.362810601443
1.05 116.16486094358
1.06 115.967248026184
1.07 115.769971276409
1.08 115.573030122389
1.09 115.376423993226
1.1 115.180152318996
1.11 114.984214530743
1.12 114.788610060481
1.13 114.593338341187
1.14 114.398398806805
1.15 114.203790892242
1.16 114.009514033365
1.17 113.815567667002
1.18 113.621951230937
1.19 113.428664163913
1.2 113.235705905626
1.21 113.043075896725
1.22 112.850773578813
1.23 112.658798394439
1.24 112.467149787104
1.25 112.275827201253
1.26 112.084830082278
1.27 111.894157876513
1.28 111.703810031235
1.29 111.513785994661
1.3 111.324085215945
1.31 111.134707145181
1.32 110.945651233397
1.33 110.756916932554
1.34 110.568503695546
1.35 110.380410976199
1.36 110.192638229266
1.37 110.005184910429
1.38 109.818050476295
1.39 109.631234384396
1.4 109.444736093187
1.41 109.258555062044
1.42 109.072690751262
1.43 108.887142622055
1.44 108.701910136553
1.45 108.516992757802
1.46 108.33238994976
1.47 108.148101177298
1.48 107.964125906196
1.49 107.780463603145
1.5 107.597113735742
1.51 107.414075772488
1.52 107.23134918279
1.53 107.048933436959
1.54 106.866828006204
1.55 106.685032362636
1.56 106.503545979263
1.57 106.322368329988
1.58 106.141498889612
1.59 105.960937133828
1.6 105.780682539219
1.61 105.600734583263
1.62 105.421092744322
1.63 105.241756501648
1.64 105.062725335378
1.65 104.883998726535
1.66 104.705576157023
1.67 104.527457109627
1.68 104.349641068015
1.69 104.172127516728
1.7 103.99491594119
1.71 103.818005827696
1.72 103.641396663416
1.73 103.465087936393
1.74 103.289079135541
1.75 103.113369750643
1.76 102.937959272349
1.77 102.762847192178
1.78 102.588033002511
1.79 102.413516196594
1.8 102.239296268536
1.81 102.065372713305
1.82 101.891745026729
1.83 101.718412705493
1.84 101.545375247139
1.85 101.372632150064
1.86 101.200182913516
1.87 101.028027037598
1.88 100.856164023262
1.89 100.684593372308
1.9 100.513314587385
1.91 100.342327171986
1.92 100.171630630453
1.93 100.001224467965
1.94 99.8311081905483
1.95 99.6612813050664
1.96 99.4917433192227
1.97 99.3224937415578
1.98 99.1535320814485
1.99 98.9848578491063
2 98.8164705555755
2.01 98.6483697127327
2.02 98.4805548332845
2.03 98.3130254307666
2.04 98.1457810195421
2.05 97.9788211148006
2.06 97.812145232556
2.07 97.6457528896458
2.08 97.4796436037294
2.09 97.3138168932865
2.1 97.1482722776162
2.11 96.9830092768353
2.12 96.8180274118768
2.13 96.653326204489
2.14 96.4889051772331
2.15 96.3247638534833
2.16 96.1609017574242
2.17 95.9973184140496
2.18 95.8340133491619
2.19 95.6709860893698
2.2 95.5082361620873
2.21 95.3457630955325
2.22 95.1835664187262
2.23 95.0216456614899
2.24 94.8600003544454
2.25 94.6986300290128
2.26 94.5375342174093
2.27 94.376712452648
2.28 94.2161642685363
2.29 94.0558891996747
2.29999999999999 93.8958867814552
2.30999999999999 93.7361565500607
2.31999999999999 93.5766980424625
2.32999999999999 93.4175107964199
2.33999999999999 93.2585943504786
2.34999999999999 93.0999482439691
2.35999999999999 92.9415720170056
2.36999999999999 92.7834652104849
2.37999999999999 92.6256273660843
2.38999999999999 92.4680580262613
2.39999999999999 92.3107567342513
2.40999999999999 92.1537230340671
2.41999999999999 91.9969564704969
2.42999999999999 91.8404565891035
2.43999999999999 91.6842229362225
2.44999999999999 91.5282550589616
2.45999999999999 91.3725525051986
2.46999999999999 91.2171148235807
2.47999999999999 91.0619415635227
2.48999999999999 90.9070322752059
2.49999999999999 90.7523865095771
2.50999999999999 90.5980038183468
2.51999999999999 90.4438837539879
2.52999999999999 90.2900258697349
2.53999999999999 90.1364297195823
2.54999999999999 89.9830948582832
2.55999999999999 89.8300208413481
2.56999999999999 89.6772072250439
2.57999999999999 89.524653566392
2.58999999999999 89.3723594231676
2.59999999999999 89.2203243538981
2.60999999999999 89.0685479178618
2.61999999999999 88.9170296750872
2.62999999999999 88.7657691863505
2.63999999999999 88.6147660131758
2.64999999999999 88.4640197178327
2.65999999999999 88.3135298633355
2.66999999999999 88.163296013442
2.67999999999999 88.013317732652
2.68999999999999 87.8635945862061
2.69999999999999 87.7141261400847
2.70999999999999 87.5649119610064
2.71999999999999 87.4159516164267
2.72999999999999 87.2672446745372
2.73999999999999 87.118790704264
2.74999999999999 86.9705892752664
2.75999999999999 86.8226399579358
2.76999999999998 86.6749423233947
2.77999999999998 86.5274959434946
2.78999999999998 86.3803003908159
2.79999999999998 86.233355238666
2.80999999999998 86.0866600610778
2.81999999999998 85.9402144328092
2.82999999999998 85.7940179293415
2.83999999999998 85.6480701268779
2.84999999999998 85.5023706023427
2.85999999999998 85.35691893338
2.86999999999998 85.2117146983522
2.87999999999998 85.0667574763391
2.88999999999998 84.9220468471365
2.89999999999998 84.777582391255
2.90999999999998 84.6333636899188
2.91999999999998 84.4893903250646
2.92999999999998 84.3456618793402
2.93999999999998 84.2021779361035
2.94999999999998 84.0589380794209
2.95999999999998 83.9159418940665
2.96999999999998 83.773188965521
2.97999999999998 83.6306788799699
2.98999999999998 83.4884112243027
2.99999999999998 83.346385586112
3.00999999999998 83.2046015536915
3.01999999999998 83.0630587160356
3.02999999999998 82.9217566628377
3.03999999999998 82.7806949844893
3.04999999999998 82.6398732720788
3.05999999999998 82.4992911173898
3.06999999999998 82.3589481129007
3.07999999999998 82.2188438517833
3.08999999999998 82.0789779279009
3.09999999999998 81.9393499358082
3.10999999999998 81.7999594707495
3.11999999999998 81.6608061286575
3.12999999999998 81.5218895061524
3.13999999999998 81.3832092005407
3.14999999999998 81.2447648098136
3.15999999999998 81.1065559326465
3.16999999999998 80.9685821683975
3.17999999999998 80.830843117106
3.18999999999998 80.693338379492
3.19999999999998 80.5560675569548
3.20999999999998 80.4190302515714
3.21999999999998 80.2822260660961
3.22999999999998 80.145654603959
3.23999999999997 80.0093154692644
3.24999999999997 79.8732082667905
3.25999999999997 79.7373326019877
3.26999999999997 79.6016880809775
3.27999999999997 79.4662743105514
3.28999999999997 79.3310908981701
3.29999999999997 79.1961374519617
3.30999999999997 79.0614135807211
3.31999999999997 78.9269188939089
3.32999999999997 78.7926530016496
3.33999999999997 78.6586155147314
3.34999999999997 78.5248060446042
3.35999999999997 78.3912242033792
3.36999999999997 78.2578696038273
3.37999999999997 78.1247418593782
3.38999999999997 77.9918405841191
3.39999999999997 77.8591653927938
3.40999999999997 77.7267159008014
3.41999999999997 77.5944917241953
3.42999999999997 77.4624924796821
3.43999999999997 77.3307177846203
3.44999999999997 77.1991672570195
3.45999999999997 77.067840515539
3.46999999999997 76.9367371794868
3.47999999999997 76.8058568688185
3.48999999999997 76.6751992041365
3.49999999999997 76.5447638066882
3.50999999999997 76.4145502983654
3.51999999999997 76.2845583017034
3.52999999999997 76.1547874398793
3.53999999999997 76.0252373367115
3.54999999999997 75.895907616658
3.55999999999997 75.7667979048159
3.56999999999997 75.63790782692
3.57999999999997 75.5092370093419
3.58999999999997 75.3807850790885
3.59999999999997 75.2525516638015
3.60999999999997 75.1245363917559
3.61999999999997 74.996738891859
3.62999999999997 74.8691587936496
3.63999999999997 74.7417957272965
3.64999999999997 74.6146493235978
3.65999999999997 74.4877192139794
3.66999999999997 74.3610050304945
3.67999999999997 74.234506405822
3.68999999999997 74.1082229732659
3.69999999999997 73.9821543667537
3.70999999999996 73.8563002208359
3.71999999999996 73.7306601706847
3.72999999999996 73.6052338520926
3.73999999999996 73.4800209014719
3.74999999999996 73.3550209558536
3.75999999999996 73.2302336528857
3.76999999999996 73.105658630833
3.77999999999996 72.9812955285756
3.78999999999996 72.8571439856077
3.79999999999996 72.7332036420369
3.80999999999996 72.6094741385833
3.81999999999996 72.4859551165777
3.82999999999996 72.3626462179613
3.83999999999996 72.2395470852845
3.84999999999996 72.1166573617055
3.85999999999996 71.9939766909898
3.86999999999996 71.8715047175089
3.87999999999996 71.7492410862391
3.88999999999996 71.6271854427606
3.89999999999996 71.5053374332568
3.90999999999996 71.3836967045128
3.91999999999996 71.2622629039146
3.92999999999996 71.141035679448
3.93999999999996 71.0200146796977
3.94999999999996 70.8991995538463
3.95999999999996 70.7785899516729
3.96999999999996 70.6581855235526
3.97999999999996 70.5379859204554
3.98999999999996 70.4179907939446
3.99999999999996 70.2981997961766
4.00999999999996 70.1786125798995
4.01999999999996 70.059228798452
4.02999999999996 69.9400481057625
4.03999999999996 69.8210701563484
4.04999999999996 69.7022946053144
4.05999999999996 69.5837211083522
4.06999999999996 69.4653493217393
4.07999999999996 69.3471789023374
4.08999999999996 69.2292095075927
4.09999999999996 69.1114407955335
4.10999999999996 68.99387242477
4.11999999999996 68.8765040544934
4.12999999999996 68.7593353444744
4.13999999999996 68.6423659550625
4.14999999999996 68.5255955471852
4.15999999999996 68.4090237823466
4.16999999999996 68.2926503226266
4.17999999999996 68.1764748306802
4.18999999999996 68.060496969736
4.19999999999995 67.9447164035956
4.20999999999995 67.8291327966327
4.21999999999995 67.7137458137916
4.22999999999995 67.5985551205868
4.23999999999995 67.4835603831019
4.24999999999995 67.3687612679882
4.25999999999995 67.2541574424644
4.26999999999995 67.1397485743152
4.27999999999995 67.0255343318904
4.28999999999995 66.911514384104
4.29999999999995 66.7976884004333
4.30999999999995 66.6840560509177
4.31999999999995 66.5706170061581
4.32999999999995 66.4573709373157
4.33999999999995 66.3443175161109
4.34999999999995 66.231456414823
4.35999999999995 66.1187873062883
4.36999999999995 66.0063098639
4.37999999999995 65.8940237616066
4.38999999999995 65.7819286739117
4.39999999999995 65.6700242758722
4.40999999999995 65.5583102430979
4.41999999999995 65.4467862517506
4.42999999999995 65.3354519785427
4.43999999999995 65.2243071007368
4.44999999999995 65.1133512961444
4.45999999999995 65.0025842431251
4.46999999999995 64.8920056205858
4.47999999999995 64.7816151079794
4.48999999999995 64.6714123853043
4.49999999999995 64.5613971331031
4.50999999999995 64.4515690324619
4.51999999999995 64.3419277650093
4.52999999999995 64.2324730129157
4.53999999999995 64.1232044588918
4.54999999999995 64.0141217861883
4.55999999999995 63.9052246785948
4.56999999999995 63.7965128204386
4.57999999999995 63.6879858965842
4.58999999999995 63.579643592432
4.59999999999995 63.4714855939177
4.60999999999995 63.3635115875114
4.61999999999995 63.2557212602161
4.62999999999995 63.1481142995679
4.63999999999995 63.0406903936339
4.64999999999995 62.933449231012
4.65999999999995 62.8263905008301
4.66999999999994 62.7195138927446
4.67999999999994 62.6128190969399
4.68999999999994 62.5063058041276
4.69999999999994 62.3999737055454
4.70999999999994 62.2938224929561
4.71999999999994 62.1878518586469
4.72999999999994 62.0820614954286
4.73999999999994 61.9764510966345
4.74999999999994 61.8710203561195
4.75999999999994 61.7657689682594
4.76999999999994 61.6606966279499
4.77999999999994 61.5558030306056
4.78999999999994 61.4510878721595
4.79999999999994 61.3465508490616
4.80999999999994 61.2421916582784
4.81999999999994 61.138009997292
4.82999999999994 61.0340055640989
4.83999999999994 60.9301780572094
4.84999999999994 60.8265271756469
4.85999999999994 60.7230526189466
4.86999999999994 60.6197540871548
4.87999999999994 60.5166312808283
4.88999999999994 60.413683901033
4.89999999999994 60.3109116493435
4.90999999999994 60.2083142278421
4.91999999999994 60.1058913391177
4.92999999999994 60.0036426862654
4.93999999999994 59.9015679728852
4.94999999999994 59.7996669030814
4.95999999999994 59.6979391814616
4.96999999999994 59.5963845131359
4.97999999999994 59.4950026037162
4.98999999999994 59.393793159315
4.99999999999994 59.2927558865447
5.00999999999994 59.1918904925171
5.01999999999994 59.0911966848421
5.02999999999994 58.9906741716268
5.03999999999994 58.890322661475
5.04999999999994 58.7901418634864
5.05999999999994 58.6901314872551
5.06999999999994 58.5902912428698
5.07999999999994 58.4906208409119
5.08999999999994 58.3911199924554
5.09999999999994 58.2917884090657
5.10999999999994 58.1926258027989
5.11999999999994 58.0936318862008
5.12999999999994 57.9948063723066
5.13999999999993 57.8961489746392
5.14999999999993 57.797659407209
5.15999999999993 57.6993373845131
5.16999999999993 57.6011826215341
5.17999999999993 57.5031948337393
5.18999999999993 57.4053737370805
5.19999999999993 57.3077190479921
5.20999999999993 57.2102304833914
5.21999999999993 57.1129077606771
5.22999999999993 57.0157505977285
5.23999999999993 56.9187587129049
5.24999999999993 56.8219318250449
5.25999999999993 56.7252696534651
5.26999999999993 56.6287719179599
5.27999999999993 56.5324383388
5.28999999999993 56.4362686367323
5.29999999999993 56.3402625329785
5.30999999999993 56.2444197492348
5.31999999999993 56.1487400076705
5.32999999999993 56.0532230309278
5.33999999999993 55.9578685421206
5.34999999999993 55.8626762648339
5.35999999999993 55.7676459231228
5.36999999999993 55.6727772415121
5.37999999999993 55.5780699449948
5.38999999999993 55.483523759032
5.39999999999993 55.3891384095519
5.40999999999993 55.2949136229486
5.41999999999993 55.2008491260821
5.42999999999993 55.1069446462766
5.43999999999993 55.0131999113204
5.44999999999993 54.919614649465
5.45999999999993 54.8261885894239
5.46999999999993 54.7329214603721
5.47999999999993 54.6398129919457
5.48999999999993 54.5468629142402
5.49999999999993 54.4540709578106
5.50999999999993 54.3614368536702
5.51999999999993 54.2689603332898
5.52999999999993 54.1766411285971
5.53999999999993 54.0844789719758
5.54999999999993 53.9924735962647
5.55999999999993 53.9006247347574
5.56999999999993 53.8089321212009
5.57999999999993 53.7173954897953
5.58999999999993 53.6260145751929
5.59999999999993 53.5347891124971
5.60999999999992 53.4437188372624
5.61999999999992 53.3528034854927
5.62999999999992 53.2620427936413
5.63999999999992 53.1714364986096
5.64999999999992 53.0809843377469
5.65999999999992 52.9906860488489
5.66999999999992 52.9005413701577
5.67999999999992 52.8105500403605
5.68999999999992 52.720711798589
5.69999999999992 52.6310263844188
5.70999999999992 52.5414935378684
5.71999999999992 52.4521129993986
5.72999999999992 52.3628845099119
5.73999999999992 52.2738078107512
5.74999999999992 52.1848826436997
5.75999999999992 52.0961087509798
5.76999999999992 52.0074858752524
5.77999999999992 51.919013759616
5.78999999999992 51.8306921476065
5.79999999999992 51.7425207831957
5.80999999999992 51.6544994107912
5.81999999999992 51.5666277752354
5.82999999999992 51.4789056218044
5.83999999999992 51.3913326962081
5.84999999999992 51.3039087445887
5.85999999999992 51.2166335135204
5.86999999999992 51.1295067500083
5.87999999999992 51.0425282014881
5.88999999999992 50.955697615825
5.89999999999992 50.8690147413132
5.90999999999992 50.7824793266751
5.91999999999992 50.6960911210605
5.92999999999992 50.609849874046
5.93999999999992 50.5237553356341
5.94999999999992 50.4378072562526
5.95999999999992 50.352005386754
5.96999999999992 50.2663494784146
5.97999999999992 50.1808392829335
5.98999999999992 50.0954745524326
5.99999999999992 50.0102550394554
6.00999999999992 49.9251804969662
6.01999999999992 49.8402506783495
6.02999999999992 49.7554653374097
6.03999999999992 49.6708242283695
6.04999999999992 49.5863271058702
6.05999999999992 49.5019737249701
6.06999999999992 49.4177638411444
6.07999999999991 49.3336972102842
6.08999999999991 49.2497735886958
6.09999999999991 49.1659927331002
6.10999999999991 49.0823544006323
6.11999999999991 48.9988583488398
6.12999999999991 48.9155043356832
6.13999999999991 48.8322921195346
6.14999999999991 48.7492214591772
6.15999999999991 48.6662921138045
6.16999999999991 48.5835038430195
6.17999999999991 48.5008564068345
6.18999999999991 48.4183495656698
6.19999999999991 48.3359830803533
6.20999999999991 48.2537567121197
6.21999999999991 48.17167022261
6.22999999999991 48.0897233738707
6.23999999999991 48.007915928353
6.24999999999991 47.9262476489123
6.25999999999991 47.8447182988072
6.26999999999991 47.7633276416992
6.27999999999991 47.6820754416519
6.28999999999991 47.6009614631302
6.29999999999991 47.5199854709996
6.30999999999991 47.4391472305257
6.31999999999991 47.3584465073733
6.32999999999991 47.2778830676061
6.33999999999991 47.1974566776854
6.34999999999991 47.11716710447
6.35999999999991 47.0370141152153
6.36999999999991 46.9569974775726
6.37999999999991 46.8771169595884
6.38999999999991 46.7973723297038
6.39999999999991 46.7177633567541
6.40999999999991 46.6382898099673
6.41999999999991 46.5589514589644
6.42999999999991 46.4797480737582
6.43999999999991 46.4006794247527
6.44999999999991 46.3217452827425
6.45999999999991 46.2429454189121
6.46999999999991 46.1642796048352
6.47999999999991 46.0857476124743
6.48999999999991 46.0073492141795
6.49999999999991 45.9290841826885
6.50999999999991 45.8509522911252
6.51999999999991 45.7729533129999
6.52999999999991 45.6950870222079
6.53999999999991 45.6173531930292
6.5499999999999 45.5397516001278
6.5599999999999 45.462282018551
6.5699999999999 45.3849442237288
6.5799999999999 45.3077379914733
6.5899999999999 45.2306630979779
6.5999999999999 45.1537193198166
6.6099999999999 45.0769064339436
6.6199999999999 45.0002242176927
6.6299999999999 44.9236724487763
6.6399999999999 44.8472509052848
6.6499999999999 44.7709593656864
6.6599999999999 44.6947976088261
6.6699999999999 44.6187654139248
6.6799999999999 44.5428625605794
6.6899999999999 44.4670888287616
6.6999999999999 44.3914439988172
6.7099999999999 44.3159278514659
6.7199999999999 44.2405401678003
6.7299999999999 44.1652807292854
6.7399999999999 44.0901493177582
6.7499999999999 44.0151457154264
6.7599999999999 43.9402697048685
6.7699999999999 43.8655210690328
6.7799999999999 43.7908995912367
6.7899999999999 43.7164050551665
6.7999999999999 43.6420372448762
6.8099999999999 43.5677959447873
6.8199999999999 43.493680939688
6.8299999999999 43.4196920147326
6.8399999999999 43.3458289554408
6.8499999999999 43.2720915476972
6.8599999999999 43.1984795777509
6.8699999999999 43.1249928322143
6.8799999999999 43.0516310980627
6.8899999999999 42.9783941626344
6.8999999999999 42.9052818136286
6.9099999999999 42.8322938391065
6.9199999999999 42.7594300274892
6.9299999999999 42.6866901675581
6.9399999999999 42.6140740484537
6.9499999999999 42.5415814596754
6.9599999999999 42.4692121910804
6.9699999999999 42.3969660328838
6.9799999999999 42.3248427756572
6.9899999999999 42.2528422103286
6.9999999999999 42.1809641281816
7.00999999999989 42.1092083208552
7.01999999999989 42.0375745803422
7.02999999999989 41.9660626989899
7.03999999999989 41.8946724694985
7.04999999999989 41.8234036849208
7.05999999999989 41.752256138662
7.06999999999989 41.6812296244783
7.07999999999989 41.610323936477
7.08999999999989 41.5395388691157
7.09999999999989 41.4688742172015
7.10999999999989 41.3983297758906
7.11999999999989 41.3279053406878
7.12999999999989 41.2576007074456
7.13999999999989 41.1874156723638
7.14999999999989 41.1173500319892
7.15999999999989 41.0474035832142
7.16999999999989 40.977576123277
7.17999999999989 40.9078674497609
7.18999999999989 40.8382773605931
7.19999999999989 40.7688056540449
7.20999999999989 40.6994521287306
7.21999999999989 40.6302165836073
7.22999999999989 40.5610988179738
7.23999999999989 40.4920986314704
7.24999999999989 40.4232158240785
7.25999999999989 40.3544501961196
7.26999999999989 40.2858015482546
7.27999999999989 40.2172696814839
7.28999999999989 40.1488543971464
7.29999999999989 40.0805554969186
7.30999999999989 40.0123727828148
7.31999999999989 39.9443060571858
7.32999999999989 39.8763551227187
7.33999999999989 39.8085197824365
7.34999999999989 39.7407998396969
7.35999999999989 39.6731950981923
7.36999999999989 39.6057053619492
7.37999999999989 39.5383304353272
7.38999999999989 39.4710701230188
7.39999999999989 39.4039242300489
7.40999999999989 39.3368925617739
7.41999999999989 39.2699749238814
7.42999999999989 39.2031711223896
7.43999999999989 39.1364809636464
7.44999999999989 39.0699042543296
7.45999999999989 39.0034408014455
7.46999999999989 38.9370904123289
7.47999999999988 38.8708528946422
7.48999999999988 38.8047280563752
7.49999999999988 38.7387157058441
7.50999999999988 38.6728156516912
7.51999999999988 38.6070277028847
7.52999999999988 38.5413516687173
7.53999999999988 38.4757873588063
7.54999999999988 38.410334583093
7.55999999999988 38.3449931518418
7.56999999999988 38.27976287564
7.57999999999988 38.214643565397
7.58999999999988 38.1496350323442
7.59999999999988 38.0847370880336
7.60999999999988 38.0199495443382
7.61999999999988 37.9552722134508
7.62999999999988 37.8907049078838
7.63999999999988 37.8262474404686
7.64999999999988 37.7618996243548
7.65999999999988 37.69766127301
7.66999999999988 37.6335322002191
7.67999999999988 37.5695122200838
7.68999999999988 37.505601147022
7.69999999999988 37.4417987957672
7.70999999999988 37.3781049813683
7.71999999999988 37.3145195191887
7.72999999999988 37.2510422249058
7.73999999999988 37.1876729145107
7.74999999999988 37.1244114043076
7.75999999999988 37.0612575109129
7.76999999999988 36.9982110512551
7.77999999999988 36.9352718425744
7.78999999999988 36.8724397024215
7.79999999999988 36.8097144486576
7.80999999999988 36.7470958994538
7.81999999999988 36.6845838732907
7.82999999999988 36.6221781889572
7.83999999999988 36.5598786655509
7.84999999999988 36.497685122477
7.85999999999988 36.4355973794478
7.86999999999988 36.3736152564826
7.87999999999988 36.3117385739065
7.88999999999988 36.2499671523505
7.89999999999988 36.1883008127507
7.90999999999988 36.1267393763477
7.91999999999988 36.0652826646864
7.92999999999988 36.003930499615
7.93999999999988 35.9426827032849
7.94999999999987 35.8815390981502
7.95999999999987 35.8204995069669
7.96999999999987 35.7595637527923
7.97999999999987 35.698731658985
7.98999999999987 35.6380030492042
7.99999999999987 35.5773777474085
8.00999999999987 35.5168555778567
8.01999999999987 35.4564363651061
8.02999999999987 35.3961199340125
8.03999999999987 35.3359061097297
8.04999999999987 35.2757947177091
8.05999999999987 35.2157855836988
8.06999999999987 35.1558785337433
8.07999999999987 35.0960733941834
8.08999999999987 35.0363699916547
8.09999999999987 34.9767681530884
8.10999999999987 34.9172677057096
8.11999999999987 34.8578684770375
8.12999999999987 34.7985702948848
8.13999999999987 34.7393729873569
8.14999999999987 34.6802763828519
8.15999999999987 34.6212803100595
8.16999999999987 34.5623845979611
8.17999999999987 34.5035890758289
8.18999999999987 34.4448935732256
8.19999999999987 34.3862979200036
8.20999999999987 34.3278019463051
8.21999999999987 34.269405482561
8.22999999999987 34.2111083594908
8.23999999999987 34.1529104081019
8.24999999999987 34.0948114596892
8.25999999999987 34.0368113458345
8.26999999999987 33.9789098984063
8.27999999999987 33.9211069495589
8.28999999999987 33.8634023317323
8.29999999999987 33.8057958776514
8.30999999999987 33.7482874203259
8.31999999999987 33.6908767930492
8.32999999999987 33.6335638293987
8.33999999999987 33.5763483632346
8.34999999999987 33.5192302286998
8.35999999999987 33.4622092602195
8.36999999999987 33.4052852925003
8.37999999999987 33.3484581605303
8.38999999999987 33.291727699578
8.39999999999987 33.2350937451924
8.40999999999987 33.178556133202
8.41999999999986 33.1221146997149
8.42999999999986 33.0657692811176
8.43999999999986 33.0095197140753
8.44999999999986 32.9533658355308
8.45999999999986 32.8973074827044
8.46999999999986 32.8413444930933
8.47999999999986 32.7854767044712
8.48999999999986 32.7297039548877
8.49999999999986 32.6740260826678
8.50999999999986 32.6184429264117
8.51999999999986 32.5629543249941
8.52999999999986 32.5075601175638
8.53999999999986 32.4522601435433
8.54999999999986 32.397054242628
8.55999999999986 32.3419422547864
8.56999999999986 32.286924020259
8.57999999999986 32.2319993795579
8.58999999999986 32.177168173467
8.59999999999986 32.1224302430405
8.60999999999986 32.0677854296035
8.61999999999986 32.0132335747507
8.62999999999986 31.9587745203462
8.63999999999986 31.9044081085235
8.64999999999986 31.8501341816843
8.65999999999986 31.7959525824984
8.66999999999986 31.7418631539036
8.67999999999986 31.6878657391045
8.68999999999986 31.6339601815726
8.69999999999986 31.5801463250456
8.70999999999986 31.5264240135272
8.71999999999986 31.4727930912862
8.72999999999986 31.4192534028565
8.73999999999986 31.3658047930365
8.74999999999986 31.3124471068886
8.75999999999986 31.2591801897386
8.76999999999986 31.2060038871756
8.77999999999986 31.1529180450513
8.78999999999986 31.0999225094797
8.79999999999986 31.0470171268365
8.80999999999986 30.9942017437588
8.81999999999986 30.9414762071446
8.82999999999986 30.8888403641523
8.83999999999986 30.8362940622002
8.84999999999986 30.7838371489664
8.85999999999986 30.7314694723879
8.86999999999986 30.6791908806606
8.87999999999986 30.6270012222385
8.88999999999985 30.5749003458334
8.89999999999985 30.5228881004144
8.90999999999985 30.4709643352078
8.91999999999985 30.419128899696
8.92999999999985 30.3673816436178
8.93999999999985 30.3157224169674
8.94999999999985 30.2641510699943
8.95999999999985 30.2126674532026
8.96999999999985 30.1612714173509
8.97999999999985 30.1099628134516
8.98999999999985 30.0587414927704
8.99999999999985 30.0076073068263
9.00999999999985 29.9565601073907
9.01999999999985 29.9055997464871
9.02999999999985 29.854726076391
9.03999999999985 29.803938949629
9.04999999999985 29.7532382189785
9.05999999999985 29.7026237374676
9.06999999999985 29.6520953583741
9.07999999999985 29.6016529352257
9.08999999999985 29.551296321799
9.09999999999985 29.5010253721196
9.10999999999985 29.4508399404613
9.11999999999985 29.4007398813458
9.12999999999985 29.3507250495423
9.13999999999985 29.3007953000669
9.14999999999985 29.2509504881827
9.15999999999985 29.2011904693987
9.16999999999985 29.1515150994697
9.17999999999985 29.1019242343962
9.18999999999985 29.0524177304232
9.19999999999985 29.0029954440407
9.20999999999985 28.9536572319826
9.21999999999985 28.9044029512264
9.22999999999985 28.8552324589931
9.23999999999985 28.8061456127466
9.24999999999985 28.7571422701932
9.25999999999985 28.7082222892812
9.26999999999985 28.6593855282006
9.27999999999985 28.6106318453827
9.28999999999985 28.5619610994997
9.29999999999985 28.5133731494638
9.30999999999985 28.4648678544278
9.31999999999985 28.4164450737837
9.32999999999985 28.3681046671628
9.33999999999985 28.3198464944352
9.34999999999985 28.2716704157093
9.35999999999984 28.2235762913317
9.36999999999984 28.1755639818864
9.37999999999984 28.1276333481944
9.38999999999984 28.0797842513139
9.39999999999984 28.0320165525391
9.40999999999984 27.9843301134002
9.41999999999984 27.9367247956631
9.42999999999984 27.8892004613288
9.43999999999984 27.841756972633
9.44999999999984 27.7943941920458
9.45999999999984 27.7471119822713
9.46999999999984 27.699910206247
9.47999999999984 27.6527887271437
9.48999999999984 27.6057474083651
9.49999999999984 27.5587861135469
9.50999999999984 27.5119047065571
9.51999999999984 27.4651030514951
9.52999999999984 27.4183810126916
9.53999999999984 27.3717384547081
9.54999999999984 27.3251752423363
9.55999999999984 27.2786912405981
9.56999999999984 27.232286314745
9.57999999999984 27.1859603302577
9.58999999999984 27.1397131528457
9.59999999999984 27.0935446484471
9.60999999999984 27.0474546832277
9.61999999999984 27.0014431235815
9.62999999999984 26.9555098361292
9.63999999999984 26.9096546877189
9.64999999999984 26.8638775454248
9.65999999999984 26.8181782765477
9.66999999999984 26.7725567486136
9.67999999999984 26.7270128293743
9.68999999999984 26.6815463868062
9.69999999999984 26.6361572891107
9.70999999999984 26.5908454047131
9.71999999999984 26.5456106022626
9.72999999999984 26.5004527506319
9.73999999999984 26.4553717189167
9.74999999999984 26.4103673764355
9.75999999999984 26.3654395927289
9.76999999999984 26.3205882375597
9.77999999999984 26.275813180912
9.78999999999984 26.2311142929912
9.79999999999984 26.1864914442235
9.80999999999984 26.1419445052555
9.81999999999984 26.0974733469539
9.82999999999983 26.053077840405
9.83999999999983 26.0087578569144
9.84999999999983 25.9645132680067
9.85999999999983 25.9203439454249
9.86999999999983 25.8762497611305
9.87999999999983 25.8322305873025
9.88999999999983 25.7882862963374
9.89999999999983 25.7444167608489
9.90999999999983 25.7006218536673
9.91999999999983 25.6569014478392
9.92999999999983 25.6132554166273
9.93999999999983 25.5696836335098
9.94999999999983 25.5261859721802
9.95999999999983 25.4827623065467
9.96999999999983 25.4394125107322
9.97999999999983 25.3961364590736
9.98999999999983 25.3529340261217
9.99999999999983 25.3098050866406
10.0099999999998 25.2667495156074
10.0199999999998 25.2237671882121
10.0299999999998 25.1808579798567
10.0399999999998 25.1380217661555
10.0499999999998 25.0952584229341
10.0599999999998 25.0525678262296
10.0699999999998 25.0099498522897
10.0799999999998 24.9674043775729
10.0899999999998 24.9249312787477
10.0999999999998 24.8825304326923
10.1099999999998 24.8402017164947
10.1199999999998 24.7979450074517
10.1299999999998 24.7557601830688
10.1399999999998 24.7136471210601
10.1499999999998 24.6716056993475
10.1599999999998 24.6296357960609
10.1699999999998 24.5877372895371
10.1799999999998 24.5459100583202
10.1899999999998 24.5041539811607
10.1999999999998 24.4624689370154
10.2099999999998 24.4208548050473
10.2199999999998 24.3793114646244
10.2299999999998 24.3378387953205
10.2399999999998 24.2964366769139
10.2499999999998 24.2551049893875
10.2599999999998 24.2138436129283
10.2699999999998 24.1726524279274
10.2799999999998 24.1315313149789
10.2899999999998 24.0904801548805
10.2999999999998 24.0494988286324
10.3099999999998 24.0085872174373
10.3199999999998 23.9677452027001
10.3299999999998 23.9269726660271
10.3399999999998 23.8862694892265
10.3499999999998 23.8456355543072
10.3599999999998 23.805070743479
10.3699999999998 23.7645749391519
10.3799999999998 23.7241480239361
10.3899999999998 23.6837898806414
10.3999999999998 23.6435003922772
10.4099999999998 23.6032794420515
10.4199999999998 23.5631269133712
10.4299999999998 23.5230426898417
10.4399999999998 23.4830266552661
10.4499999999998 23.4430786936453
10.4599999999998 23.4031986891777
10.4699999999998 23.3633865262584
10.4799999999998 23.3236420894793
10.4899999999998 23.2839652636287
10.4999999999998 23.2443559336907
10.5099999999998 23.2048139848453
10.5199999999998 23.1653393024677
10.5299999999998 23.1259317721279
10.5399999999998 23.0865912795909
10.5499999999998 23.0473177108159
10.5599999999998 23.0081109519561
10.5699999999998 22.9689708893582
10.5799999999998 22.9298974095625
10.5899999999998 22.8908903993022
10.5999999999998 22.8519497455032
10.6099999999998 22.8130753352837
10.6199999999998 22.774267055954
10.6299999999998 22.735524795016
10.6399999999998 22.6968484401631
10.6499999999998 22.6582378792797
10.6599999999998 22.619693000441
10.6699999999998 22.5812136919123
10.6799999999998 22.5427998421494
10.6899999999998 22.5044513397975
10.6999999999998 22.4661680736915
10.7099999999998 22.4279499328552
10.7199999999998 22.3897968065014
10.7299999999998 22.3517085840311
10.7399999999998 22.3136851550336
10.7499999999998 22.275726409286
10.7599999999998 22.237832236753
10.7699999999998 22.2000025275863
10.7799999999998 22.1622371721246
10.7899999999998 22.1245360608931
10.7999999999998 22.0868990846033
10.8099999999998 22.0493261341525
10.8199999999998 22.0118171006237
10.8299999999998 21.9743718752851
10.8399999999998 21.93699034959
10.8499999999998 21.8996724151761
10.8599999999998 21.8624179638658
10.8699999999998 21.8252268876652
10.8799999999998 21.7880990787642
10.8899999999998 21.7510344295363
10.8999999999998 21.7140328325378
10.9099999999998 21.677094180508
10.9199999999998 21.6402183663685
10.9299999999998 21.6034052832232
10.9399999999998 21.5666548243577
10.9499999999998 21.5299668832393
10.9599999999998 21.4933413535163
10.9699999999998 21.4567781290182
10.9799999999998 21.4202771037549
10.9899999999998 21.3838381719167
10.9999999999998 21.3474612278738
11.0099999999998 21.3111461661763
11.0199999999998 21.2748928815534
11.0299999999998 21.2387012689136
11.0399999999998 21.2025712233441
11.0499999999998 21.1665026401105
11.0599999999998 21.1304954146568
11.0699999999998 21.0945494426045
11.0799999999998 21.0586646197531
11.0899999999998 21.022840842079
11.0999999999998 20.9870780057356
11.1099999999998 20.9513760070532
11.1199999999998 20.9157347425383
11.1299999999998 20.8801541088734
11.1399999999998 20.8446340029168
11.1499999999998 20.8091743217023
11.1599999999998 20.7737749624389
11.1699999999998 20.7384358225103
11.1799999999998 20.7031567994749
11.1899999999998 20.6679377910654
11.1999999999998 20.6327786951882
11.2099999999998 20.5976794099238
11.2199999999998 20.5626398335258
11.2299999999998 20.5276598644209
11.2399999999998 20.4927394012087
11.2499999999998 20.4578783426611
11.2599999999998 20.4230765877225
11.2699999999998 20.3883340355089
11.2799999999998 20.3536505853081
11.2899999999998 20.3190261365792
11.2999999999998 20.2844605889524
11.3099999999998 20.2499538422285
11.3199999999998 20.2155057963787
11.3299999999998 20.1811163515447
11.3399999999998 20.1467854080377
11.3499999999998 20.1125128663387
11.3599999999998 20.0782986270979
11.3699999999998 20.0441425911346
11.3799999999998 20.0100446594367
11.3899999999998 19.9760047331606
11.3999999999998 19.9420227136309
11.4099999999998 19.9080985023399
11.4199999999998 19.8742320009477
11.4299999999998 19.8404231112816
11.4399999999998 19.8066717353357
11.4499999999998 19.7729777752711
11.4599999999998 19.7393411334153
11.4699999999998 19.7057617122618
11.4799999999998 19.67223941447
11.4899999999998 19.6387741428652
11.4999999999998 19.6053658004375
11.5099999999998 19.5720142903424
11.5199999999998 19.5387195159
11.5299999999998 19.505481380595
11.5399999999998 19.4722997880761
11.5499999999998 19.4391746421559
11.5599999999998 19.406105846811
11.5699999999998 19.3730933061808
11.5799999999998 19.3401369245682
11.5899999999998 19.3072366064386
11.5999999999998 19.2743922564203
11.6099999999998 19.2416037793033
11.6199999999998 19.2088710800401
11.6299999999998 19.1761940637445
11.6399999999998 19.143572635692
11.6499999999998 19.111006701319
11.6599999999998 19.078496166223
11.6699999999998 19.0460409361618
11.6799999999998 19.0136409170537
11.6899999999998 18.9812960149772
11.6999999999998 18.9490061361703
11.7099999999998 18.9167711870306
11.7199999999998 18.8845910741149
11.7299999999998 18.8524657041391
11.7399999999998 18.8203949839777
11.7499999999998 18.7883788206634
11.7599999999998 18.7564171213875
11.7699999999998 18.7245097934989
11.7799999999998 18.692656744504
11.7899999999998 18.6608578820668
11.7999999999998 18.6291131140084
11.8099999999998 18.5974223483063
11.8199999999998 18.5657854930951
11.8299999999998 18.5342024566652
11.8399999999998 18.5026731474633
11.8499999999998 18.4711974740918
11.8599999999998 18.4397753453084
11.8699999999998 18.4084066700264
11.8799999999998 18.3770913573135
11.8899999999998 18.3458293163927
11.8999999999998 18.3146204566409
11.9099999999998 18.2834646875894
11.9199999999998 18.2523619189235
11.9299999999998 18.221312060482
11.9399999999998 18.190315022257
11.9499999999998 18.1593707143939
11.9599999999998 18.1284790471908
11.9699999999998 18.0976399310985
11.9799999999998 18.0668532767202
11.9899999999998 18.0361189948109
11.9999999999998 18.0054369962777
12.0099999999998 17.9748071921792
12.0199999999998 17.9442294937251
12.0299999999998 17.9137038122764
12.0399999999998 17.8832300593449
12.0499999999998 17.8528081465926
12.0599999999998 17.8224379858321
12.0699999999998 17.792119489026
12.0799999999998 17.7618525682865
12.0899999999998 17.7316371358753
12.0999999999998 17.7014731042036
12.1099999999998 17.6713603858314
12.1199999999998 17.6412988934675
12.1299999999998 17.6112885399691
12.1399999999998 17.5813292383418
12.1499999999998 17.5514209017392
12.1599999999998 17.5215634434624
12.1699999999998 17.4917567769602
12.1799999999998 17.4620008158287
12.1899999999998 17.4322954738107
12.1999999999998 17.402640664796
12.2099999999998 17.3730363028208
12.2199999999998 17.3434823020674
12.2299999999998 17.3139785768644
12.2399999999998 17.2845250416858
12.2499999999998 17.2551216111512
12.2599999999998 17.2257682000257
12.2699999999998 17.1964647232191
12.2799999999998 17.1672110957859
12.2899999999998 17.1380072329255
12.2999999999998 17.108853049981
12.3099999999998 17.07974846244
12.3199999999998 17.0506933859337
12.3299999999998 17.0216877362367
12.3399999999998 16.992731429267
12.3499999999998 16.9638243810856
12.3599999999998 16.9349665078964
12.3699999999998 16.9061577260457
12.3799999999998 16.8773979520222
12.3899999999998 16.8486871024565
12.3999999999998 16.8200250941213
12.4099999999998 16.7914118439307
12.4199999999998 16.7628472689402
12.4299999999998 16.7343312863463
12.4399999999998 16.7058638134864
12.4499999999998 16.6774447678387
12.4599999999998 16.6490740670216
12.4699999999998 16.6207516287936
12.4799999999998 16.5924773710532
12.4899999999998 16.5642512118386
12.4999999999998 16.5360730693274
12.5099999999998 16.5079428618363
12.5199999999998 16.4798605078211
12.5299999999998 16.4518259258762
12.5399999999998 16.4238390347345
12.5499999999998 16.3958997532672
12.5599999999998 16.3680080004836
12.5699999999998 16.3401636955305
12.5799999999998 16.3123667576924
12.5899999999998 16.2846171063912
12.5999999999998 16.2569146611858
12.6099999999998 16.2292593417719
12.6199999999998 16.2016510679818
12.6299999999998 16.1740897597843
12.6399999999998 16.1465753372842
12.6499999999998 16.1191077207223
12.6599999999998 16.091686830475
12.6699999999998 16.0643125870543
12.6799999999998 16.0369849111072
12.6899999999998 16.009703723416
12.6999999999998 15.9824689448974
12.7099999999998 15.9552804966029
12.7199999999998 15.9281382997181
12.7299999999998 15.901042275563
12.7399999999998 15.8739923455911
12.7499999999998 15.8469884313896
12.7599999999998 15.8200304546792
12.7699999999998 15.7931183373138
12.7799999999998 15.76625200128
12.7899999999998 15.7394313686973
12.7999999999998 15.7126563618177
12.8099999999998 15.6859269030253
12.8199999999998 15.6592429148365
12.8299999999998 15.6326043198992
12.8399999999998 15.606011040993
12.8499999999998 15.5794630010291
12.8599999999998 15.5529601230495
12.8699999999998 15.5265023302272
12.8799999999998 15.5000895458661
12.8899999999998 15.4737216934003
12.8999999999998 15.4473986963943
12.9099999999998 15.4211204785426
12.9199999999998 15.3948869636696
12.9299999999998 15.368698075729
12.9399999999998 15.3425537388042
12.9499999999998 15.3164538771075
12.9599999999998 15.2903984149803
12.9699999999998 15.2643872768926
12.9799999999998 15.2384203874429
12.9899999999998 15.212497671358
12.9999999999998 15.1866190534927
13.0099999999998 15.1607844588298
13.0199999999998 15.1349938124795
13.0299999999998 15.1092470396794
13.0399999999998 15.0835440657945
13.0499999999998 15.0578848163165
13.0599999999998 15.0322692168641
13.0699999999998 15.0066971931823
13.0799999999998 14.9811686711427
13.0899999999998 14.9556835767426
13.0999999999998 14.9302418361056
13.1099999999998 14.9048433754807
13.1199999999998 14.8794881212425
13.1299999999998 14.8541759998907
13.1399999999998 14.8289069380504
13.1499999999998 14.803680862471
13.1599999999998 14.7784977000268
13.1699999999998 14.7533573777166
13.1799999999998 14.7282598226632
13.1899999999998 14.7032049621133
13.1999999999998 14.6781927234377
13.2099999999998 14.6532230341303
13.2199999999998 14.6282958218088
13.2299999999998 14.6034110142137
13.2399999999998 14.5785685392086
13.2499999999998 14.5537683247797
13.2599999999998 14.5290102990359
13.2699999999998 14.504294390208
13.2799999999998 14.4796205266494
13.2899999999998 14.454988636835
13.2999999999998 14.4303986493615
13.3099999999998 14.4058504929471
13.3199999999998 14.3813440964312
13.3299999999998 14.3568793887744
13.3399999999998 14.3324562990579
13.3499999999998 14.3080747564837
13.3599999999998 14.2837346903743
13.3699999999998 14.2594360301723
13.3799999999998 14.2351787054403
13.3899999999998 14.2109626458608
13.3999999999998 14.1867877812361
13.4099999999998 14.1626540414875
13.4199999999998 14.138561356656
13.4299999999998 14.1145096569011
13.4399999999998 14.0904988725015
13.4499999999998 14.0665289338544
13.4599999999998 14.0425997714752
13.4699999999998 14.018711315998
13.4799999999998 13.9948634981743
13.4899999999998 13.9710562488737
13.4999999999998 13.9472894990836
13.5099999999998 13.9235631799084
13.5199999999998 13.8998772225699
13.5299999999998 13.876231558407
13.5399999999998 13.8526261188751
13.5499999999998 13.8290608355466
13.5599999999998 13.8055356401099
13.5699999999998 13.7820504643699
13.5799999999998 13.7586052402475
13.5899999999998 13.7351998997792
13.5999999999998 13.7118343751173
13.6099999999998 13.6885085985295
13.6199999999998 13.6652225023986
13.6299999999998 13.6419760192225
13.6399999999998 13.618769081614
13.6499999999998 13.5956016223005
13.6599999999998 13.5724735741238
13.6699999999998 13.5493848700399
13.6799999999998 13.526335443119
13.6899999999998 13.503325226545
13.6999999999998 13.4803541536155
13.7099999999998 13.4574221577417
13.7199999999998 13.434529172448
13.7299999999998 13.4116751313717
13.7399999999998 13.3888599682634
13.7499999999998 13.366083616986
13.7599999999998 13.343346011515
13.7699999999998 13.3206470859385
13.7799999999998 13.2979867744563
13.7899999999998 13.2753650113804
13.7999999999998 13.2527817311346
13.8099999999998 13.2302368682541
13.8199999999997 13.2077303573854
13.8299999999997 13.1852621332864
13.8399999999997 13.1628321308258
13.8499999999997 13.1404402849831
13.8599999999997 13.1180865308487
13.8699999999997 13.0957708036231
13.8799999999997 13.073493038617
13.8899999999997 13.0512531712514
13.8999999999997 13.029051137057
13.9099999999997 13.0068868716743
13.9199999999997 12.984760310853
13.9299999999997 12.9626713904524
13.9399999999997 12.9406200464409
13.9499999999997 12.9186062148955
13.9599999999997 12.8966298320024
13.9699999999997 12.874690834056
13.9799999999997 12.8527891574592
13.9899999999997 12.8309247387231
13.9999999999997 12.8090975144668
14.0099999999997 12.7873074214172
14.0199999999997 12.7655543964088
14.0299999999997 12.7438383763838
14.0399999999997 12.7221592983912
14.0499999999997 12.7005170995875
14.0599999999997 12.678911717236
14.0699999999997 12.6573430887067
14.0799999999997 12.6358111514759
14.0899999999997 12.6143158431268
14.0999999999997 12.5928571013483
14.1099999999997 12.5714348639355
14.1199999999997 12.5500490687893
14.1299999999997 12.5286996539163
14.1399999999997 12.5073865574283
14.1499999999997 12.4861097175428
14.1599999999997 12.464869072582
14.1699999999997 12.4436645609733
14.1799999999997 12.4224961212487
14.1899999999997 12.4013636920448
14.1999999999997 12.3802672121026
14.2099999999997 12.3592066202674
14.2199999999997 12.3381818554882
14.2299999999997 12.3171928568183
14.2399999999997 12.2962395634144
14.2499999999997 12.2753219145368
14.2599999999997 12.254439849549
14.2699999999997 12.2335933079179
14.2799999999997 12.2127822292132
14.2899999999997 12.1920065531073
14.2999999999997 12.1712662193755
14.3099999999997 12.1505611678953
14.3199999999997 12.1298913386467
14.3299999999997 12.1092566717116
14.3399999999997 12.0886571072739
14.3499999999997 12.0680925856193
14.3599999999997 12.0475630471351
14.3699999999997 12.0270684323098
14.3799999999997 12.0066086817335
14.3899999999997 11.986183736097
14.3999999999997 11.9657935361923
14.4099999999997 11.9454380229119
14.4199999999997 11.9251171372489
14.4299999999997 11.9048308202969
14.4399999999997 11.8845790132495
14.4499999999997 11.8643616574006
14.4599999999997 11.8441786941437
14.4699999999997 11.8240300649721
14.4799999999997 11.8039157114788
14.4899999999997 11.7838355753558
14.4999999999997 11.7637895983947
14.5099999999997 11.7437777224857
14.5199999999997 11.7237998896183
14.5299999999997 11.7038560418803
14.5399999999997 11.6839461214583
14.5499999999997 11.6640700706369
14.5599999999997 11.6442278317993
14.5699999999997 11.6244193474265
14.5799999999997 11.6046445600973
14.5899999999997 11.5849034124882
14.5999999999997 11.5651958473734
14.6099999999997 11.5455218076242
14.6199999999997 11.5258812362092
14.6299999999997 11.5062740761941
14.6399999999997 11.4867002707412
14.6499999999997 11.4671597631099
14.6599999999997 11.4476524966557
14.6699999999997 11.4281784148307
14.6799999999997 11.408737461183
14.6899999999997 11.3893295793571
14.6999999999997 11.369954713093
14.7099999999997 11.3506128062266
14.7199999999997 11.3313038026892
14.7299999999997 11.3120276465076
14.7399999999997 11.2927842818039
14.7499999999997 11.273573652795
14.7599999999997 11.2543957037928
14.7699999999997 11.2352503792041
14.7799999999997 11.2161376235302
14.7899999999997 11.1970573813665
14.7999999999997 11.1780095974031
14.8099999999997 11.158994216424
14.8199999999997 11.140011183307
14.8299999999997 11.1210604430239
14.8399999999997 11.1021419406399
14.8499999999997 11.0832556213139
14.8599999999997 11.0644014302979
14.8699999999997 11.045579312937
14.8799999999997 11.0267892146695
14.8899999999997 11.0080310810262
14.8999999999997 10.9893048576309
14.9099999999997 10.9706104901996
14.9199999999997 10.951947924541
14.9299999999997 10.9333171065555
14.9399999999997 10.914717982236
14.9499999999997 10.896150497667
14.9599999999997 10.8776145990247
14.9699999999997 10.8591102325772
14.9799999999997 10.8406373446835
14.9899999999997 10.8221958817943
14.9999999999997 10.8037857904511
15.0099999999997 10.7854070172865
15.0199999999997 10.7670595090238
15.0299999999997 10.748743212477
15.0399999999997 10.7304580745505
15.0499999999997 10.7122040422391
15.0599999999997 10.6939810626276
15.0699999999997 10.6757890828912
15.0799999999997 10.6576280502946
15.0899999999997 10.6394979121922
15.0999999999997 10.6213986160282
15.1099999999997 10.6033301093361
15.1199999999997 10.5852923397386
15.1299999999997 10.5672852549475
15.1399999999997 10.5493088027637
15.1499999999997 10.5313629310767
15.1599999999997 10.5134475878647
15.1699999999997 10.4955627211946
15.1799999999997 10.4777082792212
15.1899999999997 10.4598842101881
15.1999999999997 10.4420904624263
15.2099999999997 10.4243269843552
15.2199999999997 10.4065937244818
15.2299999999997 10.3888906314005
15.2399999999997 10.3712176537934
15.2499999999997 10.3535747404298
15.2599999999997 10.3359618401662
15.2699999999997 10.3183789019459
15.2799999999997 10.3008258747993
15.2899999999997 10.2833027078435
15.2999999999997 10.265809350282
15.3099999999997 10.2483457514047
15.3199999999997 10.2309118605881
15.3299999999997 10.2135076272943
15.3399999999997 10.1961330010718
15.3499999999997 10.1787879315547
15.3599999999997 10.1614723684629
15.3699999999997 10.1441862616018
15.3799999999997 10.1269295608621
15.3899999999997 10.1097022162199
15.3999999999997 10.0925041777362
15.4099999999997 10.0753353955571
15.4199999999997 10.0581958199136
15.4299999999997 10.041085401121
15.4399999999997 10.0240040895796
15.4499999999997 10.0069518357737
15.4599999999997 9.98992859027196
15.4699999999997 9.97293430372719
15.4799999999997 9.95596892687607
15.4899999999997 9.93903241053911
15.4999999999997 9.92212470562048
15.5099999999997 9.90524576310787
15.5199999999997 9.88839553407234
15.5299999999997 9.8715739696682
15.5399999999997 9.85478102113283
15.5499999999997 9.83801663978658
15.5599999999997 9.82128077703261
15.5699999999997 9.80457338435674
15.5799999999997 9.78789441332734
15.5899999999997 9.77124381559513
15.5999999999997 9.75462154289313
15.6099999999997 9.73802754703642
15.6199999999997 9.72146177992209
15.6299999999997 9.70492419352904
15.6399999999997 9.68841473991786
15.6499999999997 9.67193337123069
15.6599999999997 9.65548003969109
15.6699999999997 9.6390546976039
15.6799999999997 9.62265729735508
15.6899999999997 9.6062877914116
15.6999999999997 9.58994613232129
15.7099999999997 9.5736322727127
15.7199999999997 9.55734616529495
15.7299999999997 9.54108776285764
15.7399999999997 9.52485701827067
15.7499999999997 9.50865388448409
15.7599999999997 9.49247831452804
15.7699999999997 9.4763302615125
15.7799999999997 9.46020967862727
15.7899999999997 9.44411651914174
15.7999999999997 9.42805073640484
15.8099999999997 9.41201228384482
15.8199999999997 9.39600111496916
15.8299999999997 9.38001718336446
15.8399999999997 9.36406044269624
15.8499999999997 9.34813084670886
15.8599999999997 9.33222834922538
15.8699999999997 9.31635290414738
15.8799999999997 9.30050446545489
15.8899999999997 9.28468298720621
15.8999999999997 9.2688884235378
15.9099999999997 9.25312072866413
15.9199999999997 9.23737985687757
15.9299999999997 9.22166576254826
15.9399999999997 9.20597840012392
15.9499999999997 9.19031772412979
15.9599999999997 9.17468368916848
15.9699999999997 9.15907624991979
15.9799999999997 9.14349536114065
15.9899999999997 9.12794097766495
15.9999999999997 9.11241305440339
16.0099999999997 9.09691154634339
16.0199999999997 9.08143640854896
16.0299999999997 9.06598759616052
16.0399999999997 9.05056506439482
16.0499999999997 9.03516876854479
16.0599999999997 9.01979866397942
16.0699999999997 9.00445470614362
16.0799999999997 8.98913685055808
16.0899999999997 8.97384505281917
16.0999999999997 8.9585792685988
16.1099999999997 8.94333945364427
16.1199999999997 8.92812556377819
16.1299999999997 8.91293755489829
16.1399999999997 8.89777538297735
16.1499999999997 8.88263900406303
16.1599999999997 8.86752837427777
16.1699999999997 8.85244344981863
16.1799999999997 8.83738418695722
16.1899999999997 8.82235054203951
16.1999999999997 8.80734247148575
16.2099999999997 8.7923599317903
16.2199999999997 8.77740287952157
16.2299999999997 8.76247127132181
16.2399999999997 8.74756506390705
16.2499999999997 8.73268421406696
16.2599999999997 8.71782867866469
16.2699999999997 8.7029984146368
16.2799999999997 8.68819337899309
16.2899999999997 8.67341352881651
16.2999999999997 8.65865882126298
16.3099999999998 8.64392921356136
16.3199999999998 8.62922466301321
16.3299999999998 8.61454512699277
16.3399999999998 8.59989056294678
16.3499999999998 8.58526092839436
16.3599999999998 8.57065618092691
16.3699999999998 8.55607627820796
16.3799999999998 8.54152117797307
16.3899999999998 8.52699083802969
16.3999999999998 8.51248521625705
16.4099999999998 8.49800427060604
16.4199999999998 8.48354795909906
16.4299999999998 8.46911623982995
16.4399999999998 8.45470907096382
16.4499999999998 8.44032641073694
16.4599999999998 8.42596821745664
16.4699999999998 8.41163444950118
16.4799999999998 8.3973250653196
16.4899999999998 8.38304002343165
16.4999999999998 8.36877928242763
16.5099999999998 8.35454280096829
16.5199999999998 8.34033053778469
16.5299999999998 8.32614245167813
16.5399999999998 8.31197850151994
16.5499999999998 8.29783864625147
16.5599999999998 8.28372284488387
16.5699999999998 8.26963105649807
16.5799999999998 8.25556324024455
16.5899999999998 8.24151935534332
16.5999999999998 8.22749936108377
16.6099999999998 8.2135032168245
16.6199999999998 8.19953088199329
16.6299999999998 8.18558231608692
16.6399999999998 8.17165747867108
16.6499999999998 8.15775632938023
16.6599999999998 8.14387882791751
16.6699999999998 8.13002493405461
16.6799999999998 8.11619460763166
16.6899999999998 8.10238780855708
16.6999999999998 8.08860449680752
16.7099999999998 8.07484463242772
16.7199999999998 8.06110817553035
16.7299999999998 8.04739508629598
16.7399999999998 8.03370532497289
16.7499999999998 8.020038851877
16.7599999999998 8.00639562739171
16.7699999999998 7.99277561196786
16.7799999999998 7.97917876612352
16.7899999999998 7.96560505044395
16.7999999999998 7.95205442558147
16.8099999999998 7.93852685225532
16.8199999999998 7.92502229125155
16.8299999999998 7.91154070342294
16.8399999999998 7.89808204968887
16.8499999999998 7.88464629103517
16.8599999999998 7.87123338851407
16.8699999999998 7.85784330324405
16.8799999999998 7.84447599640971
16.8899999999998 7.83113142926171
16.8999999999998 7.81780956311662
16.9099999999998 7.80451035935679
16.9199999999998 7.79123377943031
16.9299999999998 7.77797978485082
16.9399999999998 7.76474833719744
16.9499999999999 7.75153939811464
16.9599999999999 7.73835292931216
16.9699999999999 7.72518889256485
16.9799999999999 7.71204724971261
16.9899999999999 7.69892796266023
16.9999999999999 7.68583099337735
17.0099999999999 7.67275630389825
17.0199999999999 7.65970385632183
17.0299999999999 7.64667361281146
17.0399999999999 7.63366553559487
17.0499999999999 7.62067958696405
17.0599999999999 7.60771572927512
17.0699999999999 7.59477392494827
17.0799999999999 7.5818541364676
17.0899999999999 7.56895632638102
17.0999999999999 7.55608045730017
17.1099999999999 7.54322649190028
17.1199999999999 7.53039439292008
17.1299999999999 7.51758412316169
17.1399999999999 7.5047956454905
17.1499999999999 7.49202892283508
17.1599999999999 7.47928391818706
17.1699999999999 7.46656059460102
17.1799999999999 7.45385891519441
17.1899999999999 7.4411788431474
17.1999999999999 7.42852034170281
17.2099999999999 7.41588337416597
17.2199999999999 7.40326790390466
17.2299999999999 7.39067389434895
17.2399999999999 7.37810130899115
17.2499999999999 7.36555011138564
17.2599999999999 7.35302026514884
17.2699999999999 7.34051173395902
17.2799999999999 7.32802448155627
17.2899999999999 7.31555847174235
17.2999999999999 7.3031136683806
17.3099999999999 7.29069003539583
17.3199999999999 7.27828753677424
17.3299999999999 7.26590613656327
17.3399999999999 7.25354579887152
17.3499999999999 7.24120648786867
17.3599999999999 7.22888816778532
17.3699999999999 7.21659080291295
17.3799999999999 7.20431435760377
17.3899999999999 7.19205879627063
17.3999999999999 7.17982408338693
17.4099999999999 7.16761018348649
17.4199999999999 7.15541706116347
17.4299999999999 7.14324468107226
17.4399999999999 7.13109300792739
17.4499999999999 7.1189620065034
17.4599999999999 7.10685164163476
17.4699999999999 7.09476187821575
17.4799999999999 7.08269268120039
17.4899999999999 7.07064401560231
17.4999999999999 7.05861584649465
17.5099999999999 7.04660813900997
17.5199999999999 7.03462085834015
17.5299999999999 7.02265396973627
17.5399999999999 7.01070743850854
17.5499999999999 6.99878123002616
17.5599999999999 6.98687530971728
17.5699999999999 6.97498964306881
17.5799999999999 6.96312419562642
17.59 6.95127893299435
17.6 6.93945382083539
17.61 6.92764882487072
17.62 6.91586391087984
17.63 6.90409904470045
17.64 6.8923541922284
17.65 6.8806293194175
17.66 6.86892439227954
17.67 6.85723937688409
17.68 6.84557423935845
17.69 6.83392894588753
17.7 6.8223034627138
17.71 6.81069775613711
17.72 6.79911179251467
17.73 6.78754553826091
17.74 6.77599895984741
17.75 6.76447202380275
17.76 6.75296469671249
17.77 6.741476945219
17.78 6.73000873602143
17.79 6.71856003587555
17.8 6.70713081159369
17.81 6.69572103004465
17.82 6.68433065815358
17.83 6.67295966290189
17.84 6.66160801132718
17.85 6.65027567052309
17.86 6.63896260763927
17.87 6.62766878988124
17.88 6.61639418451031
17.89 6.60513875884347
17.9 6.59390248025335
17.91 6.58268531616802
17.92 6.57148723407102
17.93 6.56030820150117
17.94 6.54914818605252
17.95 6.53800715537425
17.96 6.52688507717057
17.97 6.51578191920062
17.98 6.50469764927841
17.99 6.49363223527269
18 6.48258564510686
18.01 6.47155784675891
18.02 6.46054880826127
18.03 6.44955849770079
18.04 6.43858688321859
18.05 6.42763393300998
18.06 6.41669961532438
18.07 6.40578389846522
18.08 6.39488675078987
18.09 6.3840081407095
18.1 6.37314803668903
18.11 6.36230640724703
18.12 6.35148322095562
18.13 6.34067844644038
18.14 6.32989205238026
18.15 6.31912400750751
18.16 6.30837428060755
18.17 6.29764284051891
18.18 6.28692965613312
18.19 6.27623469639465
18.2 6.26555793030078
18.21 6.25489932690154
18.22 6.24425885529961
18.2300000000001 6.23363648465023
18.2400000000001 6.22303218416111
18.2500000000001 6.21244592309234
18.2600000000001 6.2018776707563
18.2700000000001 6.1913273965176
18.2800000000001 6.18079506979292
18.2900000000001 6.170280660051
18.3000000000001 6.15978413681252
18.3100000000001 6.14930546964998
18.3200000000001 6.13884462818768
18.3300000000001 6.12840158210156
18.3400000000001 6.11797630111916
18.3500000000001 6.10756875501952
18.3600000000001 6.09717891363309
18.3700000000001 6.08680674684163
18.3800000000001 6.07645222457815
18.3900000000001 6.06611531682681
18.4000000000001 6.05579599362282
18.4100000000001 6.04549422505237
18.4200000000001 6.03520998125253
18.4300000000001 6.02494323241119
18.4400000000001 6.01469394876693
18.4500000000001 6.00446210060897
18.4600000000001 5.99424765827709
18.4700000000001 5.98405059216149
18.4800000000001 5.97387087270277
18.4900000000001 5.9637084703918
18.5000000000001 5.95356335576966
18.5100000000001 5.94343549942753
18.5200000000001 5.93332487200662
18.5300000000001 5.92323144419811
18.5400000000001 5.913155186743
18.5500000000001 5.90309607043209
18.5600000000001 5.89305406610586
18.5700000000001 5.88302914465439
18.5800000000001 5.87302127701729
18.5900000000001 5.8630304341836
18.6000000000001 5.85305658719171
18.6100000000001 5.84309970712929
18.6200000000001 5.83315976513317
18.6300000000001 5.82323673238931
18.6400000000001 5.81333058013266
18.6500000000001 5.80344127964712
18.6600000000001 5.79356880226544
18.6700000000001 5.78371311936912
18.6800000000001 5.77387420238837
18.6900000000001 5.76405202280197
18.7000000000001 5.75424655213726
18.7100000000001 5.74445776196998
18.7200000000001 5.73468562392423
18.7300000000001 5.7249301096724
18.7400000000001 5.71519119093505
18.7500000000001 5.70546883948086
18.7600000000001 5.69576302712652
18.7700000000001 5.68607372573668
18.7800000000001 5.67640090722385
18.7900000000001 5.6667445435483
18.8000000000001 5.65710460671803
18.8100000000001 5.64748106878865
18.8200000000001 5.63787390186329
18.8300000000001 5.62828307809255
18.8400000000001 5.6187085696744
18.8500000000001 5.60915034885412
18.8600000000001 5.5996083879242
18.8700000000002 5.59008265922423
18.8800000000002 5.58057313514091
18.8900000000002 5.57107978810788
18.9000000000002 5.56160259060568
18.9100000000002 5.55214151516166
18.9200000000002 5.54269653434992
18.9300000000002 5.5332676207912
18.9400000000002 5.52385474715282
18.9500000000002 5.5144578861486
18.9600000000002 5.50507701053878
18.9700000000002 5.49571209312994
18.9800000000002 5.4863631067749
18.9900000000002 5.47703002437269
19.0000000000002 5.46771281886843
19.0100000000002 5.45841146325324
19.0200000000002 5.44912593056424
19.0300000000002 5.43985619388436
19.0400000000002 5.43060222634236
19.0500000000002 5.42136400111271
19.0600000000002 5.41214149141547
19.0700000000002 5.40293467051632
19.0800000000002 5.39374351172637
19.0900000000002 5.38456798840215
19.1000000000002 5.37540807394552
19.1100000000002 5.36626374180358
19.1200000000002 5.3571349654686
19.1300000000002 5.34802171847794
19.1400000000002 5.33892397441398
19.1500000000002 5.32984170690405
19.1600000000002 5.32077488962033
19.1700000000002 5.31172349627979
19.1800000000002 5.30268750064411
19.1900000000002 5.29366687651962
19.2000000000002 5.28466159775719
19.2100000000002 5.27567163825219
19.2200000000002 5.26669697194437
19.2300000000002 5.25773757281785
19.2400000000002 5.24879341490097
19.2500000000002 5.23986447226629
19.2600000000002 5.23095071903043
19.2700000000002 5.22205212935409
19.2800000000002 5.21316867744189
19.2900000000002 5.20430033754235
19.3000000000002 5.19544708394778
19.3100000000002 5.18660889099425
19.3200000000002 5.17778573306146
19.3300000000002 5.16897758457272
19.3400000000002 5.16018441999481
19.3500000000002 5.151406213838
19.3600000000002 5.14264294065587
19.3700000000002 5.13389457504532
19.3800000000002 5.12516109164646
19.3900000000002 5.11644246514252
19.4000000000002 5.10773867025983
19.4100000000002 5.09904968176768
19.4200000000002 5.09037547447831
19.4300000000002 5.0817160232468
19.4400000000002 5.07307130297099
19.4500000000002 5.06444128859143
19.4600000000002 5.05582595509132
19.4700000000002 5.04722527749639
19.4800000000002 5.03863923087486
19.4900000000002 5.03006779033737
19.5000000000002 5.02151093103691
19.5100000000003 5.01296862816871
19.5200000000003 5.00444085697023
19.5300000000003 4.99592759272101
19.5400000000003 4.9874288107427
19.5500000000003 4.97894448639888
19.5600000000003 4.97047459509508
19.5700000000003 4.96201911227863
19.5800000000003 4.95357801343866
19.5900000000003 4.94515127410599
19.6000000000003 4.93673886985304
19.6100000000003 4.92834077629382
19.6200000000003 4.91995696908381
19.6300000000003 4.91158742391989
19.6400000000003 4.90323211654031
19.6500000000003 4.89489102272457
19.6600000000003 4.88656411829338
19.6700000000003 4.87825137910858
19.6800000000003 4.86995278107308
19.6900000000003 4.86166830013077
19.7000000000003 4.85339791226649
19.7100000000003 4.84514159350589
19.7200000000003 4.83689931991544
19.7300000000003 4.82867106760232
19.7400000000003 4.82045681271433
19.7500000000003 4.81225653143987
19.7600000000003 4.80407020000784
19.7700000000003 4.79589779468758
19.7800000000003 4.7877392917888
19.7900000000003 4.7795946676615
19.8000000000003 4.77146389869592
19.8100000000003 4.76334696132247
19.8200000000003 4.75524383201164
19.8300000000003 4.74715448727397
19.8400000000003 4.73907890365993
19.8500000000003 4.73101705775989
19.8600000000003 4.72296892620407
19.8700000000003 4.71493448566241
19.8800000000003 4.70691371284455
19.8900000000003 4.69890658449976
19.9000000000003 4.69091307741685
19.9100000000003 4.68293316842412
19.9200000000003 4.67496683438929
19.9300000000003 4.66701405221942
19.9400000000003 4.65907479886088
19.9500000000003 4.65114905129923
19.9600000000003 4.6432367865592
19.9700000000003 4.63533798170459
19.9800000000003 4.62745261383823
19.9900000000003 4.61958066010189
20.0000000000003 4.61172209767624
20.0100000000003 4.60387690378075
20.0200000000003 4.59604505567366
20.0300000000003 4.58822653065188
20.0400000000003 4.58042130605096
20.0500000000003 4.57262935924499
20.0600000000003 4.56485066764656
20.0700000000003 4.55708520870668
20.0800000000003 4.54933295991472
20.0900000000003 4.54159389879834
20.1000000000003 4.53386800292343
20.1100000000003 4.52615524989406
20.1200000000003 4.51845561735237
20.1300000000003 4.51076908297854
20.1400000000003 4.50309562449075
20.1500000000004 4.49543521964505
20.1600000000004 4.48778784623535
20.1700000000004 4.48015348209331
20.1800000000004 4.47253210508833
20.1900000000004 4.46492369312745
20.2000000000004 4.45732822415528
20.2100000000004 4.44974567615397
20.2200000000004 4.44217602714311
20.2300000000004 4.43461925517968
20.2400000000004 4.42707533835801
20.2500000000004 4.41954425480966
20.2600000000004 4.41202598270342
20.2700000000004 4.40452050024521
20.2800000000004 4.39702778567802
20.2900000000004 4.38954781728186
20.3000000000004 4.38208057337368
20.3100000000004 4.37462603230732
20.3200000000004 4.36718417247344
20.3300000000004 4.35975497229947
20.3400000000004 4.35233841024952
20.3500000000004 4.34493446482436
20.3600000000004 4.33754311456132
20.3700000000004 4.33016433803423
20.3800000000004 4.32279811385339
20.3900000000004 4.31544442066548
20.4000000000004 4.30810323715349
20.4100000000004 4.30077454203669
20.4200000000004 4.29345831407056
20.4300000000004 4.28615453204669
20.4400000000004 4.27886317479277
20.4500000000004 4.27158422117251
20.4600000000004 4.26431765008556
20.4700000000004 4.25706344046748
20.4800000000004 4.24982157128965
20.4900000000004 4.24259202155924
20.5000000000004 4.23537477031911
20.5100000000004 4.22816979664778
20.5200000000004 4.22097707965938
20.5300000000004 4.21379659850354
20.5400000000004 4.20662833236537
20.5500000000004 4.1994722604654
20.5600000000004 4.19232836205949
20.5700000000004 4.1851966164388
20.5800000000004 4.17807700292973
20.5900000000004 4.17096950089382
20.6000000000004 4.16387408972775
20.6100000000004 4.15679074886322
20.6200000000004 4.14971945776694
20.6300000000004 4.14266019594054
20.6400000000004 4.13561294292054
20.6500000000004 4.12857767827823
20.6600000000004 4.1215543816197
20.6700000000004 4.11454303258571
20.6800000000004 4.10754361085163
20.6900000000004 4.10055609612746
20.7000000000004 4.09358046815767
20.7100000000004 4.0866167067212
20.7200000000004 4.07966479163141
20.7300000000004 4.07272470273597
20.7400000000004 4.06579641991684
20.7500000000004 4.05887992309022
20.7600000000004 4.05197519220646
20.7700000000004 4.04508220725001
20.7800000000004 4.0382009482394
20.7900000000005 4.03133139522712
20.8000000000005 4.02447352829961
20.8100000000005 4.01762732757718
20.8200000000005 4.01079277321395
20.8300000000005 4.00396984539782
20.8400000000005 3.99715852435038
20.8500000000005 3.99035879032687
20.8600000000005 3.98357062361612
20.8700000000005 3.97679400454048
20.8800000000005 3.9700289134558
20.8900000000005 3.96327533075131
20.9000000000005 3.95653323684964
20.9100000000005 3.94980261220669
20.9200000000005 3.94308343731164
20.9300000000005 3.93637569268683
20.9400000000005 3.92967935888775
20.9500000000005 3.92299441650297
20.9600000000005 3.91632084615408
20.9700000000005 3.90965862849562
20.9800000000005 3.90300774421507
20.9900000000005 3.89636817403273
21.0000000000005 3.88973989870172
21.0100000000005 3.88312289900789
21.0200000000005 3.87651715576979
21.0300000000005 3.86992264983858
21.0400000000005 3.86333936209801
21.0500000000005 3.85676727346435
21.0600000000005 3.85020636488633
21.0700000000005 3.84365661734508
21.0800000000005 3.83711801185409
21.0900000000005 3.83059052945917
21.1000000000005 3.82407415123834
21.1100000000005 3.81756885830182
21.1200000000005 3.81107463179197
21.1300000000005 3.80459145288324
21.1400000000005 3.79811930278208
21.1500000000005 3.79165816272693
21.1600000000005 3.78520801398813
21.1700000000005 3.7787688378679
21.1800000000005 3.77234061570025
21.1900000000005 3.76592332885096
21.2000000000005 3.7595169587175
21.2100000000005 3.75312148672898
21.2200000000005 3.74673689434612
21.2300000000005 3.74036316306115
21.2400000000005 3.73400027439781
21.2500000000005 3.72764820991127
21.2600000000005 3.72130695118805
21.2700000000005 3.71497647984603
21.2800000000005 3.70865677753434
21.2900000000005 3.70234782593332
21.3000000000005 3.6960496067545
21.3100000000005 3.68976210174049
21.3200000000005 3.68348529266499
21.3300000000005 3.67721916133268
21.3400000000005 3.67096368957921
21.3500000000005 3.66471885927112
21.3600000000005 3.65848465230581
21.3700000000005 3.65226105061145
21.3800000000005 3.64604803614698
21.3900000000005 3.63984559090201
21.4000000000005 3.6336536968968
21.4100000000005 3.62747233618221
21.4200000000005 3.62130149083959
21.4300000000006 3.61514114298082
21.4400000000006 3.60899127474818
21.4500000000006 3.60285186831435
21.4600000000006 3.59672290588231
21.4700000000006 3.59060436968534
21.4800000000006 3.58449624198694
21.4900000000006 3.57839850508076
21.5000000000006 3.57231114129059
21.5100000000006 3.5662341329703
21.5200000000006 3.56016746250376
21.5300000000006 3.55411111230481
21.5400000000006 3.54806506481722
21.5500000000006 3.5420293025146
21.5600000000006 3.5360038079004
21.5700000000006 3.52998856350782
21.5800000000006 3.52398355189979
21.5900000000006 3.51798875566887
21.6000000000006 3.51200415743727
21.6100000000006 3.50602973985675
21.6200000000006 3.50006548560856
21.6300000000006 3.49411137740344
21.6400000000006 3.48816739798153
21.6500000000006 3.48223353011232
21.6600000000006 3.47630975659464
21.6700000000006 3.47039606025657
21.6800000000006 3.46449242395537
21.6900000000006 3.45859883057751
21.7000000000006 3.45271526303855
21.7100000000006 3.44684170428311
21.7200000000006 3.44097813728484
21.7300000000006 3.43512454504632
21.7400000000006 3.42928091059909
21.7500000000006 3.42344721700352
21.7600000000006 3.41762344734882
21.7700000000006 3.41180958475295
21.7800000000006 3.4060056123626
21.7900000000006 3.40021151335313
21.8000000000006 3.39442727092851
21.8100000000006 3.38865286832129
21.8200000000006 3.38288828879256
21.8300000000006 3.37713351563185
21.8400000000006 3.37138853215714
21.8500000000006 3.36565332171479
21.8600000000006 3.35992786767949
21.8700000000006 3.35421215345419
21.8800000000006 3.3485061624701
21.8900000000006 3.34280987818661
21.9000000000006 3.33712328409124
21.9100000000006 3.3314463636996
21.9200000000006 3.32577910055536
21.9300000000006 3.32012147823016
21.9400000000006 3.31447348032361
21.9500000000006 3.30883509046319
21.9600000000006 3.30320629230426
21.9700000000006 3.29758706952998
21.9800000000006 3.29197740585125
21.9900000000006 3.2863772850067
